<svg width="80" height="61" viewBox="0 0 80 61" version="1.1" xmlns="http://www.w3.org/2000/svg" xmlns:xlink="http://www.w3.org/1999/xlink">
    <title>balabam-mobil-logo</title>
    <desc>Created using Figma</desc>
    <g id="Canvas" transform="translate(702 527)">
        <g id="balabam-mobil-logo">
            <g id="Shape">
                <use xlink:href="#path0_fill" transform="translate(-650.544 -513.462)" fill="#FFFFFF"/>
            </g>
            <g id="Shape">
                <use xlink:href="#path1_fill" transform="translate(-635.183 -527)" fill="#FFFFFF"/>
            </g>
            <g id="Shape">
                <use xlink:href="#path2_fill" transform="translate(-641.328 -520.231)" fill="#FFFFFF"/>
            </g>
            <g id="Shape">
                <use xlink:href="#path3_fill" transform="translate(-685.104 -519.479)" fill="#FFFFFF"/>
            </g>
            <g id="Shape">
                <use xlink:href="#path4_fill" transform="translate(-658.224 -517.223)" fill="#FFFFFF"/>
            </g>
            <g id="Shape">
                <use xlink:href="#path5_fill" transform="translate(-658.992 -509.702)" fill="#FFFFFF"/>
            </g>
            <g id="Shape">
                <use xlink:href="#path6_fill" transform="translate(-685.104 -521.735)" fill="#FFFFFF"/>
            </g>
            <g id="Shape">
                <use xlink:href="#path7_fill" transform="translate(-672.048 -523.24)" fill="#FFFFFF"/>
            </g>
            <g id="Shape">
                <use xlink:href="#path8_fill" transform="translate(-669.744 -520.231)" fill="#FFFFFF"/>
            </g>
            <g id="Shape">
                <use xlink:href="#path9_fill" transform="translate(-685.104 -515.719)" fill="#FFFFFF"/>
            </g>
            <g id="Shape">
                <use xlink:href="#path10_fill" transform="translate(-692.016 -518.727)" fill="#FFFFFF"/>
            </g>
            <g id="Shape">
                <use xlink:href="#path11_fill" transform="translate(-689.712 -518.727)" fill="#FFFFFF"/>
            </g>
            <g id="Shape">
                <use xlink:href="#path12_fill" transform="translate(-678.192 -524.744)" fill="#FFFFFF"/>
            </g>
            <g id="Shape">
                <use xlink:href="#path13_fill" transform="translate(-675.888 -522.487)" fill="#FFFFFF"/>
            </g>
            <g id="Shape">
                <use xlink:href="#path14_fill" transform="translate(-692.016 -523.24)" fill="#FFFFFF"/>
            </g>
            <g id="Shape">
                <use xlink:href="#path15_fill" transform="translate(-694.32 -523.24)" fill="#FFFFFF"/>
            </g>
            <g id="Shape">
                <use xlink:href="#path16_fill" transform="translate(-702 -524.744)" fill="#FFFFFF"/>
            </g>
            <g id="Shape">
                <use xlink:href="#path17_fill" transform="translate(-699.696 -523.992)" fill="#FFFFFF"/>
            </g>
            <g id="Shape">
                <use xlink:href="#path18_fill" transform="translate(-645.168 -510.454)" fill="#FFFFFF"/>
            </g>
            <g id="Shape">
                <use xlink:href="#path19_fill" transform="translate(-688.944 -523.24)" fill="#FFFFFF"/>
            </g>
            <g id="Shape">
                <use xlink:href="#path20_fill" transform="translate(-668.208 -520.231)" fill="#FFFFFF"/>
            </g>
            <g id="Shape">
                <use xlink:href="#path21_fill" transform="translate(-687.408 -518.727)" fill="#FFFFFF"/>
            </g>
            <g id="Shape">
                <use xlink:href="#path22_fill" transform="translate(-694.32 -518.727)" fill="#FFFFFF"/>
            </g>
            <g id="Shape">
                <use xlink:href="#path23_fill" transform="translate(-686.64 -522.487)" fill="#FFFFFF"/>
            </g>
            <g id="Shape">
                <use xlink:href="#path24_fill" transform="translate(-682.8 -512.71)" fill="#FFFFFF"/>
            </g>
            <g id="Shape">
                <use xlink:href="#path25_fill" transform="translate(-645.168 -512.71)" fill="#FFFFFF"/>
            </g>
            <g id="Shape">
                <use xlink:href="#path26_fill" transform="translate(-698.16 -520.231)" fill="#FFFFFF"/>
            </g>
            <g id="Shape">
                <use xlink:href="#path27_fill" transform="translate(-695.856 -519.479)" fill="#FFFFFF"/>
            </g>
            <g id="Shape">
                <use xlink:href="#path28_fill" transform="translate(-696.624 -523.992)" fill="#FFFFFF"/>
            </g>
            <g id="Shape">
                <use xlink:href="#path29_fill" transform="translate(-662.064 -519.479)" fill="#FFFFFF"/>
            </g>
            <g id="Shape">
                <use xlink:href="#path30_fill" transform="translate(-689.712 -524.744)" fill="#FFFFFF"/>
            </g>
            <g id="Shape">
                <use xlink:href="#path31_fill" transform="translate(-673.584 -514.214)" fill="#FFFFFF"/>
            </g>
            <g id="Shape">
                <use xlink:href="#path32_fill" transform="translate(-660.528 -517.975)" fill="#FFFFFF"/>
            </g>
            <g id="Shape">
                <use xlink:href="#path33_fill" transform="translate(-678.96 -525.496)" fill="#FFFFFF"/>
            </g>
            <g id="Shape">
                <use xlink:href="#path34_fill" transform="translate(-692.784 -515.719)" fill="#FFFFFF"/>
            </g>
            <g id="Shape">
                <use xlink:href="#path35_fill" transform="translate(-685.104 -524.744)" fill="#FFFFFF"/>
            </g>
            <g id="Shape">
                <use xlink:href="#path36_fill" transform="translate(-669.744 -514.966)" fill="#FFFFFF"/>
            </g>
            <g id="Shape">
                <use xlink:href="#path37_fill" transform="translate(-665.904 -515.719)" fill="#FFFFFF"/>
            </g>
            <g id="Shape">
                <use xlink:href="#path38_fill" transform="translate(-680.496 -524.744)" fill="#FFFFFF"/>
            </g>
            <g id="Shape">
                <use xlink:href="#path39_fill" transform="translate(-682.8 -524.744)" fill="#FFFFFF"/>
            </g>
            <g id="Shape">
                <use xlink:href="#path40_fill" transform="translate(-671.28 -514.966)" fill="#FFFFFF"/>
            </g>
            <g id="Shape">
                <use xlink:href="#path41_fill" transform="translate(-667.44 -514.966)" fill="#FFFFFF"/>
            </g>
            <g id="Shape">
                <use xlink:href="#path42_fill" transform="translate(-686.64 -513.462)" fill="#FFFFFF"/>
            </g>
            <g id="Shape">
                <use xlink:href="#path43_fill" transform="translate(-687.408 -514.214)" fill="#FFFFFF"/>
            </g>
            <g id="Shape">
                <use xlink:href="#path44_fill" transform="translate(-662.064 -515.719)" fill="#FFFFFF"/>
            </g>
            <g id="Shape">
                <use xlink:href="#path45_fill" transform="translate(-685.104 -512.71)" fill="#FFFFFF"/>
            </g>
            <g id="Shape">
                <use xlink:href="#path46_fill" transform="translate(-689.712 -514.966)" fill="#FFFFFF"/>
            </g>
            <g id="Shape">
                <use xlink:href="#path47_fill" transform="translate(-679.728 -512.71)" fill="#FFFFFF"/>
            </g>
            <g id="Shape">
                <use xlink:href="#path48_fill" transform="translate(-678.192 -512.71)" fill="#FFFFFF"/>
            </g>
            <g id="Shape">
                <use xlink:href="#path49_fill" transform="translate(-676.656 -512.71)" fill="#FFFFFF"/>
            </g>
            <g id="Shape">
                <use xlink:href="#path50_fill" transform="translate(-675.12 -512.71)" fill="#FFFFFF"/>
            </g>
            <g id="Shape">
                <use xlink:href="#path51_fill" transform="translate(-635.951 -523.24)" fill="#FFFFFF"/>
            </g>
            <g id="Shape">
                <use xlink:href="#path52_fill" transform="translate(-635.183 -520.983)" fill="#FFFFFF"/>
            </g>
            <g id="Shape">
                <use xlink:href="#path53_fill" transform="translate(-660.528 -514.214)" fill="#FFFFFF"/>
            </g>
            <g id="Shape">
                <use xlink:href="#path54_fill" transform="translate(-635.951 -524.744)" fill="#FFFFFF"/>
            </g>
            <g id="Shape">
                <use xlink:href="#path55_fill" transform="translate(-635.951 -521.735)" fill="#FFFFFF"/>
            </g>
            <g id="Shape">
                <use xlink:href="#path56_fill" transform="translate(-635.951 -526.248)" fill="#FFFFFF"/>
            </g>
            <g id="Shape">
                <use xlink:href="#path57_fill" transform="translate(-634.415 -516.471)" fill="#FFFFFF"/>
            </g>
        </g>
    </g>
    <defs>
        <path id="path0_fill" fill-rule="evenodd" d="M 28.3505 22.8506C 28.2848 21.3601 27.9562 19.8696 27.5618 18.3791C 27.2333 17.137 26.6418 16.0191 26.0503 14.9012C 25.3274 13.5349 24.6044 12.1686 23.4872 11.0507C 23.2243 10.7609 22.903 10.5262 22.5817 10.2916C 22.421 10.1743 22.2604 10.057 22.1071 9.9328C 21.5156 9.56018 20.8584 9.18756 20.2669 8.87701C 20.004 8.75281 19.7411 8.6907 19.4125 8.6907C 19.3024 8.68124 19.1909 8.67035 19.0782 8.65933L 19.0727 8.65878C 18.4471 8.5976 17.7891 8.53323 17.178 8.6907C 16.0608 9.00125 15.1407 9.62228 14.2206 10.3055C 14.0629 10.4296 13.9053 10.5563 13.747 10.6834L 13.7466 10.6837L 13.7323 10.6953L 13.7319 10.6956C 13.1038 11.2004 12.467 11.7122 11.789 12.1065C 11.4854 12.3217 11.1159 12.454 10.744 12.5873C 10.472 12.6847 10.1987 12.7827 9.94879 12.9138C 9.09442 13.3486 8.43726 13.9696 7.84576 14.7149C 7.38568 15.2738 6.85992 15.8328 6.20276 16.2675C 5.74268 16.5159 5.4798 16.4538 5.34839 15.957C 5.21692 15.3981 5.06909 14.8391 4.9212 14.2802C 4.77332 13.7212 4.62549 13.1623 4.49402 12.6033C 4.39545 12.1065 4.29688 11.6252 4.19824 11.1439C 4.09967 10.6625 4.0011 10.1812 3.90253 9.68439C 3.70538 8.6907 3.57391 7.75916 3.4425 6.76547C 3.4425 6.57913 3.50818 6.26862 3.63965 6.08231C 3.71368 5.95114 3.79028 5.82001 3.86731 5.68814C 4.33746 4.88348 4.82263 4.05301 4.82263 3.03915C 4.82263 2.29391 4.7569 1.61075 4.36255 0.927612C 4.16541 0.492859 3.77112 0.182373 3.31104 0.0581055C 2.19379 -0.25238 1.27374 0.741272 1.33942 1.61075C 1.40515 2.54233 1.27374 3.4118 0.81366 4.21915C 0.156494 5.33704 -0.172119 6.57913 0.0907593 7.82126C 0.156433 8.16263 0.205688 8.48853 0.254944 8.81439C 0.30426 9.14062 0.353577 9.46683 0.419373 9.80859C 0.480591 10.1365 0.535461 10.4644 0.589966 10.7905L 0.591553 10.7998L 0.591675 10.8007L 0.591919 10.8023L 0.592163 10.8039L 0.592529 10.8062L 0.593079 10.8094C 0.712891 11.5266 0.831177 12.2347 1.01086 12.9138C 1.40515 14.4665 1.7995 15.957 2.25952 17.5096L 2.27826 17.5806C 2.53522 18.5533 2.8056 19.5768 3.63965 20.3043C 4.29688 20.9254 4.88831 21.1738 5.61127 20.8633C 6.34052 20.5417 7.03381 20.1861 7.74438 19.8216L 7.75513 19.8161L 7.7561 19.8156L 7.75732 19.815C 8.00299 19.689 8.25079 19.5619 8.50293 19.4349C 9.5639 18.8734 10.5153 18.1306 11.4632 17.3906L 11.4638 17.3901C 11.9836 16.9843 12.5024 16.5793 13.0377 16.2054C 13.3005 16.0191 13.5633 15.8174 13.8261 15.6156C 14.0891 15.4137 14.352 15.2118 14.6149 15.0254C 14.9435 14.8391 15.4036 14.9012 15.7322 15.1496C 16.4551 15.7086 16.9152 16.4538 17.2438 17.2612C 17.7045 18.4585 17.812 19.7036 17.9199 20.9545L 17.9205 20.9615L 17.9212 20.969C 17.936 21.1407 17.9509 21.3125 17.9667 21.4843C 18.0324 22.478 17.9667 23.5338 17.8353 24.5896L 17.8351 24.5909C 17.7037 25.522 17.5723 26.4532 17.3095 27.3843C 16.9152 28.5022 16.3894 29.6201 15.6665 30.6137C 15.4036 30.9243 15.3379 30.9864 15.0093 30.6758C 14.3521 29.9927 13.4977 29.6822 12.5776 29.6822C 12.0519 29.6822 11.5261 29.6822 10.9346 29.9927C 11.0902 30.1887 11.2458 30.3751 11.3933 30.5518C 11.6196 30.8229 11.827 31.0713 11.9861 31.2969C 12.127 31.2969 12.249 31.2791 12.3622 31.2625C 12.4603 31.2482 12.5518 31.2348 12.6433 31.2348L 12.709 31.4211C 12.6433 31.4521 12.5612 31.4832 12.479 31.5143C 12.3969 31.5453 12.3147 31.5764 12.249 31.6074C 13.6949 33.6569 14.4178 35.9548 14.2206 38.5011C 13.9906 38.5321 13.777 38.5476 13.5634 38.5632C 13.3499 38.5787 13.1362 38.5942 12.9062 38.6253C 10.6718 39.06 9.16016 40.8611 9.16016 42.9105C 9.16016 45.0221 10.7374 46.8231 12.9719 47.2578C 13.0705 47.2889 13.1691 47.3044 13.2676 47.3199C 13.3662 47.3355 13.4648 47.351 13.5634 47.3821L 14.1549 47.3821C 14.1877 47.3821 14.2371 47.3665 14.2864 47.351C 14.3356 47.3355 14.3849 47.3199 14.4178 47.3199C 16.9809 47.0094 18.7553 44.8979 18.4268 42.4758C 18.361 42.041 18.2296 41.5442 18.0981 41.1095C 18.2296 41.0474 18.361 40.9853 18.5582 40.9232C 19.7063 40.4409 20.7306 39.6662 21.6912 38.9397L 21.6916 38.9394L 21.7784 38.8737C 22.3699 38.439 22.8957 37.88 23.4214 37.3211C 23.6508 37.1043 23.8481 36.8573 24.0358 36.6223L 24.0366 36.6215L 24.0369 36.6211C 24.1177 36.5198 24.1968 36.4208 24.2758 36.3274C 24.6702 35.8306 25.0645 35.3337 25.3931 34.8369C 25.5903 34.5263 25.7546 34.2157 25.9189 33.9051L 25.9199 33.9034C 26.0839 33.5935 26.2479 33.2836 26.4446 32.9737C 27.1901 31.8899 27.4852 30.6168 27.7667 29.4022L 27.7668 29.4017L 27.767 29.4011L 27.7687 29.3934C 27.8091 29.2191 27.8493 29.046 27.8904 28.8748C 27.9793 28.581 28.0081 28.2589 28.0377 27.9275C 28.0519 27.7685 28.0663 27.6075 28.0876 27.4464C 28.1092 27.2423 28.1379 27.0382 28.1667 26.8342L 28.1673 26.8298L 28.168 26.825C 28.2264 26.4111 28.2848 25.9972 28.2848 25.5833C 28.4788 24.7889 28.4183 23.8743 28.3537 22.8986L 28.3505 22.8506ZM 1.7995 8.6907C 1.86523 8.6286 1.99664 8.50439 2.06238 8.50439C 2.10352 8.49142 2.14178 8.47849 2.17841 8.46609C 2.31726 8.41907 2.43213 8.38019 2.58813 8.38019C 2.65387 8.38019 2.78528 8.44229 2.91675 8.50439C 2.88385 8.53546 2.85095 8.58209 2.81805 8.62869L 2.8175 8.62946C 2.78485 8.67575 2.75226 8.72195 2.7196 8.75281L 2.71906 8.75299C 2.52203 8.81503 2.32501 8.87708 2.06238 8.93912C 2.01654 8.85251 1.93878 8.79608 1.8736 8.74881L 1.87311 8.74844C 1.84503 8.72809 1.81927 8.70938 1.7995 8.6907ZM 2.71954 9.00125C 2.58813 9.00125 2.39099 9.06335 2.25952 9.12546C 2.17834 9.12546 2.14728 9.17288 2.10443 9.23843L 2.10406 9.23895C 2.07764 9.27936 2.04663 9.32663 1.99664 9.37387C 2.06238 9.37387 2.12811 9.43597 2.19379 9.49808C 2.30389 9.47208 2.40247 9.45694 2.48956 9.4436C 2.61035 9.42508 2.70892 9.40997 2.78528 9.37387C 2.87695 9.33057 2.93658 9.25711 2.98663 9.19553C 3.00836 9.16876 3.02826 9.14426 3.04816 9.12546C 3.01331 9.10898 2.98309 9.09253 2.95496 9.07721L 2.95416 9.07675C 2.87683 9.03455 2.8158 9.00125 2.71954 9.00125ZM 2.19348 9.85724L 2.19379 9.85687C 2.23761 9.80167 2.28143 9.74649 2.3252 9.74649C 2.45667 9.68439 2.65381 9.68439 2.78528 9.68439C 2.88147 9.68439 2.9425 9.71768 3.01984 9.75989L 3.02063 9.76035C 3.04877 9.77567 3.07898 9.79211 3.11383 9.80859C 3.11383 9.83466 3.11383 9.84976 3.10901 9.86313C 3.10229 9.88162 3.0863 9.89676 3.04816 9.9328C 2.91675 9.96387 2.8017 9.9949 2.68665 10.0259C 2.57166 10.057 2.45667 10.0881 2.3252 10.1191C 2.3252 10.1191 2.25952 9.9949 2.12805 9.9328C 2.14984 9.91217 2.17169 9.8847 2.19348 9.85724ZM 3.24536 10.3676C 3.11389 10.3055 2.98248 10.3055 2.85101 10.3055C 2.78528 10.3055 2.65387 10.3055 2.58813 10.3676C 2.49652 10.4109 2.43683 10.4843 2.38678 10.5459C 2.36505 10.5727 2.34515 10.5972 2.32526 10.616C 2.37714 10.6405 2.41876 10.6746 2.45819 10.707C 2.5188 10.7567 2.57428 10.8023 2.65387 10.8023C 2.73975 10.8429 2.85364 10.8304 2.97729 10.8169L 2.97827 10.8168C 3.04358 10.8097 3.11157 10.8023 3.17963 10.8023C 3.17963 10.6997 3.19952 10.616 3.21747 10.5407L 3.21765 10.54C 3.23218 10.4788 3.24536 10.4232 3.24536 10.3676ZM 2.7196 10.9886C 2.85089 10.9265 3.04785 10.8645 3.24481 10.8025L 3.24536 10.8023L 3.4425 10.9886C 3.4425 11.0507 3.4425 11.237 3.37677 11.237C 3.17963 11.2991 2.98248 11.2991 2.85101 11.2991C 2.78534 11.2991 2.7196 11.237 2.65387 11.1749C 2.58813 11.1128 2.65387 11.0507 2.7196 10.9886ZM 2.71954 11.6718L 2.71954 11.8581C 2.78528 11.9202 2.85101 11.9202 2.85101 11.9202C 2.96497 11.8932 3.05438 11.878 3.13495 11.8643L 3.13696 11.8639L 3.13757 11.8638C 3.24176 11.8461 3.33173 11.8308 3.44244 11.796C 3.50818 11.796 3.57391 11.7339 3.57391 11.6718C 3.57391 11.6096 3.50818 11.4854 3.44244 11.4854C 3.31104 11.5165 3.19598 11.5475 3.08099 11.5786C 2.966 11.6096 2.85095 11.6407 2.71954 11.6718ZM 2.85101 12.4791C 2.85101 12.417 2.91675 12.2928 2.98248 12.2928C 3.11389 12.2307 3.31104 12.1686 3.4425 12.1686C 3.52209 12.1686 3.57758 12.2141 3.63812 12.2638C 3.67761 12.2962 3.71924 12.3304 3.77112 12.3549C 3.70538 12.386 3.65607 12.4325 3.60675 12.4791C 3.5575 12.5257 3.50818 12.5723 3.4425 12.6033L 3.31104 12.6033L 3.04816 12.6033C 2.98248 12.6033 2.85101 12.5412 2.85101 12.4791ZM 3.63965 12.8517C 3.57391 12.7896 3.44244 12.8517 3.31104 12.9138C 3.24548 12.9448 3.19635 12.9912 3.14716 13.0377L 3.14673 13.0381L 3.1463 13.0385C 3.09711 13.0849 3.04797 13.1313 2.98242 13.1623L 3.2453 13.4107C 3.34387 13.3796 3.42603 13.3796 3.49994 13.3796C 3.57391 13.3796 3.63965 13.3796 3.70532 13.3486C 3.797 13.3053 3.85675 13.2317 3.9068 13.1701C 3.92847 13.1434 3.94836 13.119 3.9682 13.1002C 3.90247 13.0691 3.85321 13.0225 3.80396 12.976C 3.75464 12.9294 3.70532 12.8828 3.63965 12.8517ZM 3.83679 13.9696L 3.2453 13.9696C 3.31104 13.7212 3.90253 13.5349 4.03394 13.6591C 4.03394 13.6591 4.09967 13.7212 4.09967 13.7833L 4.09967 14.218C 3.90253 14.3423 3.57391 14.4044 3.37677 14.1559C 3.44196 14.1252 3.52332 14.0944 3.60474 14.0635L 3.60596 14.0631L 3.60687 14.0627L 3.60779 14.0624L 3.60901 14.062C 3.69037 14.0312 3.77167 14.0004 3.83679 13.9696ZM 3.70538 14.7149C 3.63965 14.7149 3.50818 14.8391 3.50818 14.9012C 3.4425 14.9012 3.50818 15.0254 3.63965 15.0254C 3.83679 15.1496 4.29688 14.9633 4.36255 14.7149L 3.70538 14.7149ZM 3.63965 15.6465C 3.63965 15.6465 3.57391 15.5222 3.63965 15.5222C 3.83679 15.4601 4.03394 15.398 4.23108 15.2738C 4.26367 15.3047 4.31256 15.3355 4.36151 15.3663L 4.36194 15.3666L 4.36249 15.3669C 4.4118 15.398 4.46112 15.4291 4.49396 15.4601C 4.46112 15.4912 4.4118 15.5223 4.36249 15.5533L 4.36194 15.5537L 4.36151 15.554C 4.31256 15.5848 4.26367 15.6156 4.23108 15.6465L 4.16541 15.6465L 3.63965 15.6465ZM 4.29681 16.3296L 4.29742 16.3295C 4.37939 16.314 4.46136 16.2985 4.55969 16.2675C 4.59253 16.2675 4.62543 16.252 4.65833 16.2365C 4.69116 16.2209 4.724 16.2054 4.7569 16.2054C 4.73511 16.1848 4.71326 16.1573 4.69147 16.1299L 4.69116 16.1295C 4.64734 16.0743 4.60352 16.0191 4.55969 16.0191C 4.34192 16.0191 4.16925 16.0617 3.96698 16.1117L 3.96594 16.1119C 3.92432 16.1222 3.88153 16.1328 3.83679 16.1433L 3.83679 16.3296C 3.83679 16.3296 3.96826 16.3917 4.03394 16.3917C 4.13251 16.3607 4.21466 16.3452 4.29681 16.3296ZM 5.53479 20.1554L 5.53143 20.1534C 5.40942 20.0803 5.31317 20.0226 5.21692 19.9317L 5.80841 19.3727C 5.83618 19.4514 5.88733 19.519 5.93719 19.5849C 6.00549 19.675 6.07129 19.7619 6.07129 19.8696C 6.07129 19.9464 5.99597 19.9994 5.89185 20.0728C 5.82751 20.118 5.75226 20.1711 5.67694 20.2422C 5.62622 20.2103 5.5799 20.1824 5.53674 20.1566L 5.53479 20.1554ZM 6.46558 18.8759C 6.13702 19.0622 6.13702 19.2485 6.53131 19.7454C 7.05707 19.4969 7.1228 19.4348 6.85992 18.938C 6.72852 18.7517 6.66278 18.7517 6.46558 18.8759ZM 7.33655 19.1611L 7.33624 19.1607C 7.22437 19.0208 7.10535 18.8719 7.05713 18.6896C 7.05713 18.6275 7.38574 18.3791 7.45148 18.3791C 7.62305 18.4872 7.74487 18.6424 7.90356 18.8446L 7.92059 18.8662L 7.97723 18.938C 7.71436 19.0623 7.58289 19.1865 7.45148 19.3107C 7.41656 19.2612 7.37701 19.2117 7.33655 19.1611ZM 8.10864 18.5654C 8.17438 18.6896 8.37152 18.7517 8.37152 18.7517C 8.40411 18.7209 8.44073 18.6901 8.47742 18.6593L 8.47839 18.6585C 8.58923 18.5654 8.70013 18.4722 8.70013 18.3791C 8.70013 18.1306 8.56866 17.9443 8.43726 17.758C 8.16205 17.9205 8.03088 17.998 7.99664 18.1061C 7.96545 18.2047 8.01465 18.3286 8.10864 18.5654ZM 9.55444 17.8201C 9.55444 17.9509 9.42505 18.051 9.27972 18.1635C 9.21796 18.2113 9.15326 18.2614 9.09442 18.317C 9.06067 18.2532 9.02258 18.1894 8.98572 18.1277L 8.98511 18.1267C 8.87866 17.9486 8.78278 17.7881 8.83154 17.6959C 8.8855 17.543 9.07239 17.4319 9.24664 17.3282L 9.24744 17.3278C 9.28516 17.3054 9.32227 17.2833 9.3573 17.2612C 9.37921 17.3233 9.40839 17.3854 9.43762 17.4474C 9.49603 17.5717 9.55444 17.6959 9.55444 17.8201ZM 9.82788 17.4226C 9.87518 17.4723 9.92249 17.522 9.94879 17.5717C 10.0145 17.5096 10.0803 17.463 10.146 17.4164C 10.2117 17.3698 10.2774 17.3232 10.3431 17.2612L 9.94879 16.8885C 9.92041 16.9422 9.86743 16.9843 9.81647 17.0248C 9.74945 17.078 9.68591 17.1285 9.68591 17.1991C 9.68591 17.2736 9.7569 17.3481 9.82788 17.4226ZM 10.7374 17.0128C 10.7111 16.9631 10.6638 16.9134 10.6165 16.8637C 10.5455 16.7892 10.4745 16.7147 10.4745 16.6401C 10.4745 16.5696 10.5381 16.5191 10.6051 16.4659C 10.6561 16.4254 10.709 16.3833 10.7374 16.3296C 10.7812 16.371 10.8178 16.4124 10.8543 16.4539C 10.9273 16.5367 11.0003 16.6194 11.1318 16.7022C 10.9346 16.8264 10.8032 16.9507 10.7374 17.0128ZM 11.1975 16.1433C 11.1975 16.2675 11.329 16.3917 11.4604 16.5159C 11.5261 16.4538 11.6575 16.3296 11.8547 16.2054L 11.4604 15.8328C 11.432 15.8864 11.379 15.9285 11.3281 15.969C 11.261 16.0222 11.1975 16.0728 11.1975 16.1433ZM 12.1176 16.0812C 11.9204 15.8949 11.789 15.7086 12.0519 15.5222C 12.1176 15.4601 12.3148 15.5222 12.3805 15.5844C 12.4462 15.7707 12.3805 15.957 12.1176 16.0812ZM 12.6433 15.2738C 12.6433 15.3359 12.8405 15.5222 12.8405 15.5222C 12.9719 15.5222 13.1033 15.398 13.2348 15.2117L 12.9719 14.9633C 12.9254 15.0073 12.8788 15.0435 12.8352 15.0774C 12.7556 15.1393 12.6858 15.1936 12.6433 15.2738ZM 13.4977 15.0875C 13.4977 15.0875 13.3663 14.9633 13.3005 14.9633C 13.366 14.9015 13.4478 14.8396 13.5295 14.7778L 13.5305 14.7771L 13.5314 14.7764C 13.6132 14.7145 13.6951 14.6526 13.7606 14.5907L 14.0234 14.7149C 13.8674 14.8624 13.7525 14.932 13.6136 15.0162L 13.6104 15.0182C 13.5748 15.0398 13.5375 15.0624 13.4977 15.0875ZM 13.1691 31.2969C 13.0377 31.4832 12.9719 31.6074 12.9062 31.7316C 12.9062 31.7316 12.9719 31.8558 13.0377 31.918L 13.0382 31.9174L 13.0386 31.9171C 13.1697 31.7931 13.3007 31.6692 13.3662 31.5453C 13.3662 31.5453 13.2348 31.4211 13.1691 31.2969ZM 13.8263 31.7316C 13.7606 31.9179 13.6949 32.1042 13.3005 31.98C 13.4091 31.8775 13.4777 31.7938 13.5395 31.7185L 13.5402 31.7176C 13.5904 31.6565 13.636 31.6009 13.6949 31.5453C 13.6949 31.5764 13.7277 31.6074 13.7606 31.6385C 13.7935 31.6695 13.8263 31.7006 13.8263 31.7316ZM 14.0234 32.539C 14.0892 32.539 14.1549 32.6011 14.1549 32.6011C 14.2205 32.5391 14.2861 32.4616 14.3517 32.3842L 14.3521 32.3837C 14.4178 32.3061 14.4835 32.2285 14.5492 32.1664L 14.4178 32.0421C 14.3522 32.1351 14.2866 32.2126 14.2209 32.2901L 14.2206 32.2906L 14.2193 32.2921C 14.1541 32.3692 14.0887 32.4464 14.0234 32.539ZM 27.759 23.5338L 27.759 24.1548C 27.4522 24.1134 27.2039 24.072 26.9555 24.0306C 26.8315 24.0099 26.7074 23.9892 26.576 23.9685C 26.5478 23.9685 26.5317 23.9685 26.5172 23.9636C 26.4982 23.957 26.4821 23.9418 26.4446 23.9064C 26.1095 23.8747 25.9453 23.8592 25.8561 23.7693C 25.7703 23.6828 25.7539 23.5276 25.7217 23.2232C 25.7217 22.9748 25.7874 22.9127 25.9846 22.9127C 26.3928 22.9127 26.7494 22.9616 27.1461 23.0161L 27.299 23.0369C 27.6276 23.099 27.759 23.2853 27.759 23.5338ZM 27.3647 22.4159C 27.4961 22.4159 27.5618 22.4159 27.6276 22.3538C 27.759 22.1675 27.4961 21.6085 27.2332 21.6085C 26.8389 21.5464 26.3788 21.5464 25.9188 21.6085C 25.8531 21.6085 25.7217 21.7327 25.6559 21.7948C 25.6559 22.1675 25.8531 22.3538 26.116 22.3538C 26.3127 22.3538 26.5258 22.3693 26.739 22.3847L 26.7404 22.3848C 26.9539 22.4004 27.1675 22.4159 27.3647 22.4159ZM 27.4304 20.9875C 27.4304 21.2359 27.3647 21.298 27.0361 21.298C 26.7538 21.2535 26.4716 21.3046 26.1652 21.3599L 26.1641 21.3601C 26.0428 21.382 25.9177 21.4046 25.7874 21.4222C 25.7449 21.4222 25.7055 21.4251 25.6698 21.4278L 25.6688 21.4278L 25.6679 21.4279C 25.5389 21.4375 25.4588 21.4435 25.4588 21.298C 25.4588 21.1117 25.5245 20.8633 25.5903 20.8011C 26.0503 20.6769 26.5103 20.6148 27.0361 20.5527C 27.3647 20.4906 27.4304 20.739 27.4304 20.9875ZM 27.1018 19.7454C 27.0854 19.6212 27.0689 19.4969 27.0361 19.3727C 27.0361 19.2485 26.7732 19.1243 26.6418 19.1864L 26.4935 19.2095C 26.1353 19.2647 25.7389 19.3259 25.3931 19.4349C 25.2617 19.497 25.1302 19.6212 25.1302 19.6833C 25.1959 19.9317 25.3273 20.1801 25.4588 20.4285C 25.4588 20.4285 25.5902 20.3664 25.6559 20.3664C 25.8525 20.3355 26.0327 20.2891 26.2129 20.2426L 26.2146 20.2422C 26.3953 20.1956 26.576 20.149 26.7732 20.118L 26.7732 20.1801C 26.9047 20.1801 27.1675 20.118 27.1675 20.118C 27.1346 19.9938 27.1182 19.8696 27.1018 19.7454ZM 26.7075 18.1928C 26.7075 18.2837 26.7427 18.3746 26.7874 18.4899C 26.8037 18.5321 26.8213 18.5776 26.8389 18.6275C 26.7732 18.6896 26.7075 18.7517 26.576 18.8138C 26.4956 18.8355 26.4171 18.8573 26.34 18.8787L 26.3265 18.8824C 25.9678 18.9819 25.6365 19.0737 25.2617 19.1243C 25.1846 19.1243 25.1076 19.103 25.0438 19.0854C 24.9987 19.0729 24.9603 19.0622 24.933 19.0622C 24.9606 18.9581 24.8958 18.8649 24.8354 18.7781C 24.7516 18.6577 24.6764 18.5494 24.8673 18.4412C 25.2617 18.1928 25.7217 18.0685 26.1817 17.9443C 26.4446 17.8201 26.6418 17.8822 26.7075 18.1928ZM 26.2894 17.5154C 26.3374 17.4977 26.3788 17.4824 26.3788 17.4475C 26.5103 17.2612 26.116 16.7022 25.8531 16.6401C 25.7262 16.7001 25.5857 16.7601 25.4403 16.8221C 25.134 16.9528 24.8062 17.0927 24.5387 17.2612C 24.2758 17.3854 24.473 17.6959 24.6044 17.8822C 24.6646 18.0526 24.7795 18.0153 24.9494 17.9602L 24.9987 17.9443C 25.2617 17.8201 25.5245 17.7511 25.7874 17.6821L 25.7883 17.6819C 25.9194 17.6475 26.0506 17.613 26.1817 17.5717C 26.2105 17.5445 26.252 17.5292 26.2894 17.5154ZM 25.0983 16.5465L 25.097 16.5471C 24.8671 16.6558 24.6371 16.7644 24.4072 16.8885C 24.2101 17.0128 24.0787 16.8885 24.0129 16.7643C 24.003 16.7362 23.9916 16.7081 23.9802 16.6801C 23.9165 16.5232 23.8555 16.373 24.0787 16.2675C 24.1619 16.2281 24.2518 16.1826 24.3461 16.1347C 24.5497 16.0315 24.7742 15.9176 24.9987 15.8328C 25.5245 15.5222 25.7217 15.6465 25.7874 16.2054C 25.5577 16.3294 25.3279 16.438 25.0983 16.5465ZM 25.05 14.7633L 25.0477 14.7598L 25.0438 14.754C 25.0093 14.7018 24.9745 14.6494 24.933 14.5907C 24.8016 14.4665 24.6702 14.3423 24.473 14.4665C 24.3745 14.5286 24.2594 14.5751 24.1444 14.6217L 24.1436 14.622L 24.1427 14.6224L 24.1418 14.6227L 24.141 14.623L 24.1401 14.6234L 24.1393 14.6237L 24.1384 14.6241C 24.0256 14.67 23.9127 14.7159 23.8158 14.777C 23.2243 15.0875 23.1586 15.2117 23.5529 15.7086C 23.6844 15.8328 23.7501 15.8949 23.9473 15.7707C 24.2759 15.5844 24.6702 15.4601 25.0645 15.3359C 25.1959 15.2738 25.2617 15.2117 25.3274 15.1496C 25.196 14.9841 25.123 14.8737 25.05 14.7633ZM 24.3416 13.9696L 24.3408 13.97C 23.8154 14.2182 23.4213 14.4045 22.9614 14.6528C 22.83 14.5286 22.6985 14.3423 22.5671 14.1559C 22.5014 14.0938 22.6328 13.8454 22.6985 13.7833C 22.9614 13.597 23.2243 13.4728 23.4872 13.3486C 24.0787 13.2244 24.4073 13.5349 24.3416 13.9696ZM 23.4214 13.0381C 23.4872 13.0381 23.6186 12.9138 23.6186 12.8517C 23.6186 12.4791 23.0928 12.2928 22.7642 12.417C 22.4357 12.5412 22.1728 12.7275 21.9099 12.9138C 21.8771 12.9449 21.8606 12.976 21.8442 13.007C 21.8278 13.0381 21.8113 13.0691 21.7784 13.1002C 21.862 13.1791 21.922 13.2581 21.9783 13.3324C 22.0549 13.4333 22.1249 13.5255 22.2385 13.597C 22.2385 13.6436 22.3491 13.5855 22.46 13.5273L 22.4604 13.5271L 22.4623 13.5261C 22.4986 13.507 22.5348 13.488 22.5671 13.4728C 22.6985 13.4107 22.8464 13.3331 22.9943 13.2554C 23.1422 13.1778 23.29 13.1002 23.4214 13.0381ZM 22.6985 11.9823C 22.6985 12.0444 22.6329 12.1686 22.6329 12.1686C 22.37 12.3549 22.0414 12.5412 21.7128 12.7275C 21.6799 12.7586 21.647 12.7741 21.6142 12.7896C 21.5814 12.8052 21.5485 12.8207 21.5156 12.8517C 21.474 12.8124 21.4258 12.7731 21.3752 12.7318L 21.3746 12.7314C 21.2655 12.6423 21.1453 12.5442 21.0555 12.417C 20.9899 12.3549 21.1213 12.1686 21.2527 12.0444C 21.3957 11.9093 21.5732 11.8069 21.7351 11.7134L 21.736 11.7129L 21.7369 11.7123L 21.7399 11.7106L 21.741 11.7099L 21.7424 11.7091C 21.8012 11.6752 21.8579 11.6425 21.9099 11.6096C 22.1728 11.4854 22.6985 11.6718 22.6985 11.9823ZM 21.7127 11.3612C 21.7784 11.3612 21.7784 11.237 21.7784 11.1749C 21.647 10.9265 21.0555 10.7402 20.8583 10.9265C 20.6614 11.0506 20.53 11.1747 20.3987 11.2988L 20.3983 11.2991C 20.3326 11.3612 20.1354 11.5475 20.2012 11.6096C 20.291 11.7369 20.4114 11.8352 20.5207 11.9244C 20.5714 11.9657 20.6196 12.005 20.6612 12.0444C 20.694 12.0133 20.7269 11.9978 20.7598 11.9823C 20.7927 11.9667 20.8255 11.9512 20.8583 11.9202C 21.187 11.7339 21.4498 11.5475 21.7127 11.3612ZM 20.6612 10.5539C 20.6283 10.5849 20.6119 10.616 20.5955 10.647C 20.579 10.6781 20.5626 10.7091 20.5297 10.7402C 20.4614 10.8048 20.393 10.8619 20.3274 10.9167C 20.2037 11.0201 20.0898 11.1153 20.004 11.237C 19.7753 11.4964 19.642 11.3646 19.5157 11.2395C 19.4606 11.185 19.4067 11.1317 19.3468 11.1128C 19.1496 11.0507 19.2153 10.8644 19.3468 10.7402C 19.5439 10.5539 19.7411 10.3676 19.9383 10.2433C 20.1354 10.1191 20.6612 10.3055 20.6612 10.5539ZM 17.4413 39.8056C 17.5726 39.9297 17.7039 40.0537 17.7695 40.0537C 17.9667 39.9916 18.0981 39.8674 18.0981 39.7432C 18.0543 39.5775 18.0105 39.467 17.9667 39.3566C 17.9448 39.3014 17.9229 39.2462 17.901 39.1842C 17.8855 39.1549 17.8736 39.1152 17.8611 39.0732C 17.8206 38.9376 17.7732 38.7788 17.5724 38.8737C 17.2438 38.9358 17.178 39.1221 17.3095 39.4326C 17.3424 39.4948 17.3588 39.5569 17.3752 39.619C 17.3917 39.6811 17.4081 39.7432 17.4409 39.8053L 17.4413 39.8056ZM 18.2296 10.3054C 18.2296 10.1812 18.361 9.9949 18.5582 9.9328C 18.6649 9.89917 18.7716 9.88376 18.8888 9.86682C 18.988 9.85251 19.0948 9.83707 19.2153 9.80859C 19.2455 9.83707 19.3033 9.85251 19.357 9.86682C 19.4204 9.88376 19.4782 9.89917 19.4782 9.9328C 19.4782 9.9949 19.4125 10.1191 19.3468 10.2433C 19.3043 10.3235 19.2345 10.3779 19.1549 10.4398C 19.1113 10.4737 19.0648 10.5099 19.0182 10.5539C 18.8868 10.6781 18.6896 10.8023 18.6239 10.8023C 18.4267 10.6781 18.2953 10.4918 18.2296 10.3054ZM 18.5582 39.3084C 18.6238 39.4326 18.821 39.4948 18.8867 39.4948C 19.0839 39.4326 19.2811 39.3084 19.4125 39.1221L 19.4118 39.1204C 19.2806 38.8105 19.1494 38.5006 19.0182 38.2527C 18.9525 38.1906 18.7553 38.1284 18.6896 38.1906C 18.2296 38.439 18.1638 38.5632 18.4267 38.9979C 18.4555 39.0524 18.4717 39.1068 18.4863 39.1561C 18.5051 39.2191 18.5212 39.2736 18.5582 39.3084ZM 20.0698 38.8737C 19.9383 38.9979 19.7411 38.9358 19.6754 38.6874C 19.6426 38.5942 19.5768 38.5011 19.5111 38.4079L 19.5107 38.4074C 19.4452 38.3144 19.3796 38.2214 19.3469 38.1284C 19.2811 38.0042 19.2154 37.8179 19.2154 37.8179C 19.3469 37.6316 19.544 37.5074 19.7411 37.3832C 19.77 37.4104 19.8114 37.4257 19.8489 37.4395C 19.8969 37.4572 19.9383 37.4725 19.9383 37.5074C 19.9894 37.5718 20.0449 37.6361 20.1014 37.7015L 20.1023 37.7026L 20.1032 37.7037C 20.2642 37.8902 20.4328 38.0856 20.5298 38.3148C 20.6785 38.6426 20.4534 38.7232 20.2491 38.7963C 20.1826 38.8201 20.1182 38.8432 20.0698 38.8737ZM 20.8584 38.0042C 20.9241 38.1284 21.1213 38.2526 21.187 38.1905C 21.4498 38.0663 21.647 37.88 21.8442 37.6937C 21.5819 37.3839 21.385 37.1359 21.1883 36.888L 21.187 36.8863C 20.9569 36.6379 20.8419 36.5137 20.7269 36.5137C 20.6119 36.5137 20.4969 36.6379 20.2669 36.8863C 20.2012 36.8863 20.2012 36.9484 20.2012 36.9484C 20.234 37.0105 20.234 37.0882 20.234 37.1581C 20.234 37.2279 20.234 37.29 20.2669 37.3211C 20.4641 37.5695 20.6612 37.8179 20.8584 38.0042ZM 22.5671 37.1347C 22.5014 37.1658 22.4357 37.2124 22.37 37.259C 22.3043 37.3055 22.2385 37.3521 22.1728 37.3832C 22.2057 37.3521 22.2221 37.3211 22.2385 37.29C 22.2549 37.2589 22.2714 37.2279 22.3043 37.1968C 22.1074 37.0419 21.9107 36.9024 21.7139 36.7629L 21.7128 36.7621L 21.7116 36.7613C 21.5148 36.6218 21.3181 36.4824 21.1213 36.3274C 20.8748 36.1411 21.035 35.9897 21.186 35.847C 21.2363 35.7995 21.2856 35.7529 21.3184 35.7063C 21.4499 35.52 21.647 35.5821 21.7785 35.7063L 22.6329 36.5137L 22.6485 36.5383C 22.8367 36.8341 22.951 37.0139 22.5671 37.1347ZM 22.9614 36.3274L 23.3558 36.5137C 23.3788 36.4486 23.45 36.3911 23.5215 36.3331C 23.6548 36.2254 23.7896 36.1163 23.6187 35.9548C 23.4211 35.6934 23.176 35.4544 22.9261 35.2109L 22.9252 35.2099C 22.7599 35.0488 22.5926 34.8857 22.4357 34.7127C 21.7128 35.3337 21.7128 35.3958 22.4357 35.8927C 22.5343 35.9548 22.6165 36.0324 22.6986 36.1101L 22.699 36.1105L 22.6995 36.1109L 22.6999 36.1114L 22.7004 36.1118C 22.782 36.1888 22.8636 36.2658 22.9614 36.3274ZM 24.5387 35.2095C 24.489 35.3506 24.3638 35.456 24.249 35.5529C 24.2121 35.5839 24.1763 35.6141 24.1444 35.6443C 23.6843 35.2716 23.2243 34.899 22.83 34.5264C 22.6752 34.3436 22.7709 34.2254 22.8759 34.0957C 22.9493 34.0051 23.0272 33.9089 23.0272 33.7811C 23.1586 33.7811 23.29 33.7811 23.4214 33.8432C 23.5529 33.9467 23.6842 34.0432 23.8156 34.1398L 23.816 34.1401C 24.0789 34.3333 24.3416 34.5264 24.6044 34.7748C 24.5387 34.8369 24.5387 35.0853 24.5387 35.2095ZM 24.7708 34.4117C 24.8722 34.4959 24.9828 34.5878 25.1302 34.4021C 25.3931 34.0295 25.3931 33.7811 25.1302 33.6569L 23.7501 32.7253C 23.2243 33.0979 23.2243 33.3464 23.7501 33.719C 24.013 33.9674 24.3416 34.1537 24.6702 34.34C 24.7034 34.3557 24.7366 34.3833 24.7708 34.4117ZM 25.3274 33.2843C 24.8673 33.0358 24.4073 32.7874 24.013 32.539C 23.9473 32.4769 23.8815 32.2906 23.8815 32.1664C 23.9473 31.98 24.0787 31.9179 24.2759 32.0422C 24.5058 32.1664 24.7358 32.306 24.9657 32.4457C 25.1958 32.5855 25.4259 32.7253 25.656 32.8495C 25.7217 32.9116 25.7874 32.9737 25.7874 33.0358C 25.7874 33.2843 25.5245 33.4085 25.3274 33.2843ZM 25.7452 32.3836C 25.9113 32.4438 26.0702 32.5015 26.1818 32.2906C 26.3132 32.0422 26.3132 31.8559 25.9846 31.6695C 25.7874 31.5764 25.6066 31.4677 25.4259 31.3589C 25.2452 31.2503 25.0645 31.1416 24.8674 31.0485C 24.473 30.8622 24.2759 30.9243 24.2101 31.4832C 24.2286 31.5007 24.2523 31.5279 24.2796 31.5594L 24.2802 31.5601C 24.3502 31.6407 24.4445 31.7492 24.5388 31.7937C 24.7722 31.9702 25.0388 32.084 25.315 32.2019C 25.4276 32.25 25.5418 32.2987 25.656 32.3527C 25.6852 32.3619 25.7145 32.3725 25.7436 32.383L 25.7452 32.3836ZM 26.2474 31.359L 24.8673 30.8C 24.6702 30.7379 24.5387 30.6137 24.6702 30.3653C 24.8016 30.1169 24.933 30.1169 25.1302 30.179C 25.5903 30.3653 26.0503 30.6137 26.4446 30.8622C 26.4774 30.8932 26.5103 30.9398 26.5432 30.9864C 26.576 31.0329 26.6089 31.0795 26.6418 31.1106C 26.6418 31.2969 26.576 31.4832 26.2474 31.359ZM 25.1314 29.8689L 25.1326 29.8693L 25.1339 29.8698L 25.1351 29.8702L 25.1363 29.8706C 25.6602 30.0563 26.1841 30.242 26.7732 30.4895C 27.1675 29.9927 27.1675 29.6822 26.7075 29.4337C 26.4009 29.3096 26.0944 29.2406 25.7878 29.1716L 25.7874 29.1715C 25.634 29.137 25.4807 29.1025 25.3273 29.0611C 25.0535 29.0094 25.0079 29.1732 24.9623 29.3371L 24.9616 29.3396L 24.961 29.3418L 24.9604 29.3437L 24.9601 29.3448C 24.9517 29.375 24.9432 29.4051 24.933 29.4337C 24.8673 29.6201 24.933 29.8064 25.1302 29.8685L 25.1314 29.8689ZM 27.1675 29.2474C 26.7075 28.8127 26.116 28.7506 25.5245 28.7506C 25.2667 28.7506 25.2921 28.5594 25.3149 28.3871C 25.3212 28.3398 25.3273 28.2939 25.3273 28.2538C 25.3273 28.0674 25.3931 27.9432 25.6559 28.0053C 26.116 28.1295 26.576 28.2538 26.9703 28.378C 27.4962 28.5643 27.5618 28.7506 27.1675 29.2474ZM 27.2333 28.0674C 27.4304 28.0674 27.5619 28.0674 27.5619 27.819C 27.5619 27.6948 27.6276 27.6327 27.6933 27.6327C 27.6852 27.6098 27.6772 27.586 27.669 27.5619C 27.6105 27.3891 27.5457 27.198 27.4304 27.198C 27.0209 27.0874 26.5593 27.026 26.1384 26.9701L 25.9846 26.9496C 25.662 26.8987 25.6033 27.1389 25.5566 27.33L 25.5565 27.3305C 25.5462 27.3728 25.5364 27.4127 25.5245 27.4464C 25.4695 27.6542 25.5985 27.6882 25.7576 27.7301L 25.7601 27.7307C 25.7904 27.7387 25.8218 27.747 25.8531 27.7569C 26.3132 27.819 26.7733 27.9432 27.2333 28.0674ZM 27.2333 26.7632C 27.0183 26.682 26.7753 26.6539 26.5409 26.6268L 26.5399 26.6267C 26.4163 26.6124 26.2951 26.5984 26.1818 26.5769C 25.7217 26.5769 25.5245 26.2664 25.7217 25.8938C 25.7874 25.8317 25.8531 25.7696 25.9189 25.7696L 27.1018 25.7696C 27.4962 25.7696 27.6933 26.018 27.6933 26.3906C 27.6933 26.6422 27.6933 26.7664 27.6335 26.8116C 27.5753 26.8556 27.4603 26.8246 27.2333 26.7632ZM 27.4304 25.459C 27.5619 25.459 27.6276 25.459 27.6933 25.3969C 27.8904 25.2106 27.6933 24.6517 27.4304 24.6517C 27.2333 24.6206 27.0361 24.6051 26.8389 24.5896C 26.6418 24.574 26.4446 24.5585 26.2474 24.5275C 25.8531 24.4654 25.7874 24.5896 25.7874 25.0243C 25.7874 25.2106 25.9189 25.3969 26.116 25.3969C 26.3461 25.3969 26.5596 25.4125 26.7732 25.428C 26.9868 25.4435 27.2004 25.459 27.4304 25.459Z"/>
        <path id="path1_fill" d="M 0.624005 0.70509C 0.672005 0.47006 0.720006 0.23503 0.768006 0L 0.720006 0C 0.480004 0.188024 0.288002 0.376048 0 0.564072C 0.192002 0.658084 0.288002 0.70509 0.432003 0.752096C 0.528004 0.752096 0.624005 0.70509 0.624005 0.70509Z"/>
        <path id="path2_fill" fill-rule="evenodd" d="M 2.28455 7.14172L 2.2854 7.14221L 2.28644 7.14276C 2.53448 7.27911 2.78253 7.41547 3.04706 7.53668C 3.37823 7.65808 3.44446 7.84021 3.31201 8.14374C 3.04706 8.69006 2.84833 9.23639 2.6496 9.78275C 2.38464 10.5719 1.85474 11.2396 1.1261 11.7253C 0.890808 11.8977 0.622192 12.0089 0.343872 12.1242C 0.230286 12.1712 0.115173 12.2188 0 12.2716C 0.132507 12.5144 0.331177 12.5144 0.596191 12.5144C 0.695496 12.5144 0.811401 12.5296 0.927307 12.5448L 0.927917 12.5449C 1.04364 12.56 1.15936 12.5751 1.25854 12.5751L 1.25854 12.6965C 1.19257 12.7268 1.11005 12.757 1.02753 12.7873L 1.02661 12.7876C 0.943848 12.818 0.861084 12.8483 0.794861 12.8786C 0.728638 12.8786 0.662415 13.0001 0.662415 13.0001C 0.662415 13.0608 0.728638 13.1215 0.794861 13.1215C 0.993591 13.1822 1.25854 13.2429 1.45728 13.2429C 2.28107 13.189 3.05261 13.0871 3.86462 12.9799L 3.86536 12.9799L 4.17316 12.9393C 5.16675 12.8179 5.76288 13.0608 5.89539 14.0927C 5.89539 14.1838 5.91193 14.29 5.92847 14.3962C 5.94507 14.5025 5.96161 14.6087 5.96161 14.6998C 5.96161 14.9426 6.09412 15.1247 6.42529 15.0033C 6.62402 14.9426 6.82275 14.8819 7.02142 14.7605C 7.10712 14.7212 7.19275 14.6813 7.27856 14.6412L 7.28613 14.6377C 7.99432 14.3072 8.71405 13.9713 9.53857 13.9713L 10.3334 13.9713C 10.0685 13.1822 10.2672 12.4537 10.4659 11.786C 10.5984 11.3003 10.7971 10.6933 11.1946 10.3898C 11.857 9.90414 11.9232 9.47922 11.6583 8.87216C 11.6211 8.80399 11.6465 8.73581 11.676 8.65689C 11.699 8.59528 11.7245 8.5271 11.7245 8.44724C 11.7576 8.50781 11.8071 8.56836 11.8566 8.62891L 11.8569 8.6293C 11.9066 8.69003 11.9563 8.75073 11.9894 8.81146C 12.0226 8.8418 12.0226 8.87216 12.0226 8.90253C 12.0226 8.93289 12.0226 8.96326 12.0557 8.99359C 12.0978 9.09647 12.1369 9.19931 12.1756 9.30103L 12.1761 9.30237C 12.3198 9.68036 12.4573 10.0423 12.7181 10.3291C 13.0493 10.754 13.1155 11.1789 13.1818 11.6646C 13.3143 12.5144 13.513 13.3643 14.1754 14.032C 14.2766 14.1248 14.4164 14.1821 14.5359 14.231C 14.5728 14.2462 14.6078 14.2605 14.639 14.2748C 14.672 14.2145 14.7213 14.1391 14.7707 14.0637L 14.7716 14.0623C 14.8213 13.9864 14.8709 13.9106 14.9041 13.8499C 15.0219 13.472 15.0873 13.0459 15.147 12.6573L 15.169 12.5144C 15.434 11.6646 15.434 10.8147 15.1027 9.96484C 14.7717 9.11554 14.3746 8.32684 13.9774 7.53815L 13.9767 7.53668C 13.778 7.17249 13.7117 6.80823 13.9104 6.3833C 14.2011 6.4975 14.2314 6.70715 14.2626 6.92249C 14.2812 7.0506 14.3 7.18066 14.3741 7.29388C 14.4072 7.29388 14.4238 7.27869 14.4404 7.26349C 14.4569 7.24835 14.4735 7.23315 14.5066 7.23315C 14.5948 7.01099 14.6976 6.79547 14.8005 6.57996L 14.801 6.57892C 15.0071 6.14728 15.2131 5.71558 15.3015 5.22992C 15.3677 4.62292 15.3677 3.95514 15.0365 3.40881C 14.3741 2.25543 13.4467 1.40558 12.1882 0.798523C 11.3933 0.373596 10.5984 0.191528 9.67108 0.0700684C 9.2074 0.00939941 8.67743 -0.0513306 8.21375 0.0700684C 8.24799 0.132812 8.28223 0.191528 8.31537 0.248291C 8.41034 0.411072 8.49585 0.557739 8.54498 0.737854C 8.74371 1.46631 8.41248 2.49823 7.35266 2.61969C 7.02142 2.68036 6.49152 2.37683 6.42529 1.9519C 7.28644 2.43756 7.88257 2.19476 8.21375 1.46631C 8.41248 1.10205 8.21375 0.737854 7.94879 0.616455C 7.88257 0.737854 7.81635 0.859253 7.75012 1.04138C 7.55139 1.46631 7.02142 1.76984 6.5578 1.70911C 6.42529 1.70911 6.29279 1.70911 6.02783 1.76984C 5.96832 1.66071 5.90881 1.52716 5.84332 1.38007L 5.84229 1.37769C 5.76215 1.198 5.6731 0.99823 5.56415 0.798523C 5.46478 0.859253 5.36542 0.904785 5.26605 0.950317C 5.16669 0.99585 5.06738 1.04138 4.96802 1.10205C 4.50433 1.40558 4.17316 1.83051 3.84192 2.25543C 3.61047 2.61914 3.36249 2.96759 3.11444 3.3161L 3.11328 3.31775L 3.11212 3.3194C 2.86407 3.66791 2.61609 4.01636 2.38464 4.38007C 2.13477 4.76172 1.96344 5.16736 1.78839 5.58191C 1.685 5.82672 1.58026 6.07465 1.45728 6.32263C 1.39105 6.5047 1.45728 6.68683 1.5235 6.74756C 1.78821 6.86884 2.03644 7.00531 2.28455 7.14172ZM 12.3869 7.96161C 12.4531 7.77948 12.5856 7.65808 12.7844 7.84021C 12.9168 7.96161 13.0493 8.14374 13.0493 8.26514C 13.0493 8.93289 13.4467 9.41852 13.8442 9.90414C 14.1091 10.3291 14.3741 10.754 14.5066 11.2396C 14.7053 11.9074 14.5066 12.6358 14.1754 13.2429C 13.8442 13.1822 13.9104 12.8786 13.9767 12.7572C 14.1754 11.9074 13.9104 11.1789 13.4467 10.5112C 13.3882 10.4218 13.3282 10.3324 13.2681 10.2428L 13.2632 10.2355C 12.9166 9.71912 12.5656 9.19611 12.4531 8.62936C 12.3207 8.38654 12.3207 8.14374 12.3869 7.96161ZM 5.23303 4.05475C 5.10052 4.03528 4.96802 4.01587 4.83551 4.01587C 4.83551 4.04102 4.82416 4.05579 4.81085 4.073C 4.79199 4.09741 4.76929 4.12689 4.76929 4.198C 4.80237 4.22833 4.83551 4.27386 4.86865 4.3194C 4.90179 4.36493 4.93494 4.41046 4.96802 4.4408C 5.56415 4.74432 5.96161 5.16925 6.22656 5.71558C 6.42529 6.1405 6.75647 6.56543 7.28644 6.80829C 7.88257 7.05109 8.47876 7.11176 9.14111 6.86896C 9.53857 6.74756 9.93604 6.68683 10.3334 6.80829L 10.9296 6.99036C 10.9958 6.99036 11.0621 6.97522 11.1283 6.96002C 11.1946 6.94489 11.2608 6.92969 11.3271 6.92969L 11.3265 6.92865C 11.2604 6.80762 11.1944 6.68665 11.1284 6.62616C 11.1009 6.60101 11.0621 6.57587 11.0166 6.54639C 10.9523 6.50476 10.8748 6.45447 10.7971 6.38336C 10.3334 6.0191 10.0685 5.53351 9.86975 4.98712C 9.6048 4.198 8.94244 3.89447 8.21375 3.71234C 7.94391 3.62988 7.64349 3.71539 7.354 3.79779C 7.21716 3.83673 7.08276 3.875 6.9552 3.89447C 6.81366 3.91608 6.68048 3.94543 6.54974 3.97424C 6.31342 4.02631 6.08496 4.0766 5.8291 4.0766C 5.63043 4.11298 5.4317 4.08386 5.23303 4.05475Z"/>
        <path id="path3_fill" d="M 14.3192 4.51258C 14.4521 4.51258 14.6516 4.4516 14.7181 4.32964C 14.984 3.96375 15.1835 3.59787 15.3164 3.23198C 15.3829 3.11002 15.3829 2.80512 15.25 2.74414C 14.8511 2.37825 14.3857 2.13433 13.7873 2.19531C 13.4549 2.25629 13.056 2.01237 12.657 2.01237C 11.9257 2.01237 11.1279 2.07335 10.3965 2.13433C 10.5295 1.82942 10.463 1.52452 10.1306 1.34158C 9.7317 1.09765 9.33278 0.853731 8.93387 0.670789C 8.66793 0.548827 8.33551 0.426865 8.00308 0.304904C 7.67066 0.243923 7.40471 0.182942 7.07229 0.121962C 6.80635 0.0609808 6.47392 0 6.20798 0C 5.80907 0 5.41016 0.121962 5.01125 0.0609808C 4.3464 0 3.4156 0.548827 3.21615 1.03667C 3.14966 1.21962 3.21615 1.46354 3.21615 1.64648C 3.34912 2.13433 3.881 2.07335 4.21343 2.25629C 4.67882 2.50021 5.27719 2.50021 5.80907 2.56119C 5.80907 2.62217 5.80907 2.74413 5.80907 2.8661C 5.94204 2.50021 6.34095 2.62217 6.60689 2.50021C 6.80635 2.43923 7.0058 2.50021 7.20526 2.56119C 7.60417 2.56119 7.67066 2.62217 7.53768 2.8661C 7.27174 2.92708 7.13877 2.98806 7.0058 3.04904C 6.60689 3.171 6.20798 3.23198 5.74259 3.35394C 5.6761 3.35394 5.60962 3.29296 5.60962 3.29296C 5.74259 3.23198 5.80907 3.171 5.87556 3.11002C 5.74259 3.11002 5.60962 3.171 5.47664 3.171C 5.34367 3.23198 5.27719 3.35394 5.14422 3.35394C 5.01125 3.35394 4.81179 3.23198 4.74531 3.171C 4.54585 3.171 4.3464 3.171 4.21343 3.11002C 4.14694 3.11002 4.08046 2.98806 4.01397 3.04904C 3.4156 3.35394 3.21615 2.68315 2.75075 2.62217C 2.5513 2.56119 2.41833 2.19531 2.21887 1.95138C 1.95293 1.5855 1.48753 1.34158 1.08862 1.52452C 0.689713 1.64648 0.357287 1.82942 0.0913465 2.19531C -0.108109 2.43923 0.0913465 2.62217 0.0248614 2.8661C -0.0416238 3.53689 0.490258 3.90277 1.02214 4.14669C 1.55402 4.39062 2.15239 4.39062 2.75075 4.4516C 3.54858 4.51258 4.41288 4.51258 5.2107 4.51258C 6.07501 4.51258 6.93932 4.39062 7.80363 4.14669C 8.26902 4.02473 8.33551 3.78081 8.06957 3.41492C 8.06957 3.35394 8.06957 3.35394 8.06957 3.29296C 8.06957 3.11002 8.13605 2.92708 8.13605 2.62217C 8.20254 2.74414 8.26902 2.8661 8.33551 2.92708C 8.66793 2.62217 9.46575 2.37825 9.7317 2.56119C 9.46575 2.74414 9.19981 2.8661 8.93387 3.04904C 8.73442 3.23198 8.73442 3.59787 9.00036 3.65885C 9.33278 3.78081 9.7317 3.71983 9.99764 3.53689C 10.2636 3.35394 10.463 3.41492 10.6625 3.41492C 11.0614 3.4759 11.5268 3.59787 11.9257 3.53689C 12.657 3.4759 13.056 3.96375 13.5213 4.26865C 13.7873 4.4516 14.0532 4.51258 14.3192 4.51258Z"/>
        <path id="path4_fill" d="M 0.324158 4.68684C 0.77798 4.62264 1.2318 4.55844 1.68562 4.49423C 2.33394 4.49423 2.98226 4.49423 3.56574 4.55844C 4.01956 4.62264 4.47339 4.68684 4.86238 4.75105C 5.38103 4.81525 5.89968 4.87945 6.41834 4.94366C 7.19632 5.07206 7.9743 5.13627 8.68744 5.26467C 8.88194 5.26467 9.07644 5.20047 9.0116 4.87945C 8.94677 4.36583 9.40059 3.59539 9.98408 3.40278C 9.85442 3.33857 9.85441 3.27437 9.72475 3.21017C 9.14127 3.08176 8.55778 2.95335 7.9743 2.82495C 7.39081 2.69654 6.80733 2.50393 6.22384 2.37552C 5.44586 2.18291 4.73271 1.9261 3.95473 1.73349C 3.63057 1.66929 3.30642 1.60508 3.04709 1.47668C 2.20428 1.21986 1.49113 0.706237 0.907643 0C 0.842812 0.0642033 0.77798 0.128407 0.77798 0.19261C 0.648317 0.898847 0.453822 1.54088 0.324158 2.24712C 0.259327 2.56813 0.259327 2.88915 0.194495 3.21017C 0.194495 3.21017 0.194495 3.21017 0.194495 3.27437C 0.129663 3.65959 0.0648317 4.04481 0 4.43003C 0.0648317 4.68684 0.129663 4.68684 0.324158 4.68684Z"/>
        <path id="path5_fill" d="M 9.21607 0.125349C 9.21607 0.0626747 9.14929 0.0626747 9.14929 0C 8.88216 0.0626747 8.54824 0.188024 8.28111 0.188024C 6.7451 0.438723 5.20908 0.689422 3.67307 0.814771C 2.47098 0.94012 1.26888 1.12814 0 0.376048C 0.267133 2.06826 0.601048 3.57246 0.400699 5.202L 0.467482 5.26467C 0.667831 5.13932 0.868181 4.9513 1.00175 4.82595C 1.80314 4.07385 2.80489 3.57246 3.87342 3.25908C 5.07552 3.00839 6.27761 2.69501 7.47971 2.44431C 7.81363 2.38164 8.08076 2.19361 8.21432 1.88024C 8.34789 1.44152 8.61502 1.00279 8.81537 0.501397C 9.01572 0.438723 9.14929 0.250699 9.21607 0.125349Z"/>
        <path id="path6_fill" d="M 8.59282 1.44634C 7.85929 1.18921 7.12576 0.867803 6.39223 0.610676C 5.85876 0.417831 5.39196 0.289268 4.7918 0.289268C 4.65843 0.224986 4.59175 0.160704 4.45838 0.160704C 4.25833 0.160704 3.99159 0.224986 3.85822 0.160704C 3.39143 -0.0964226 2.85795 0.0321409 2.39116 0.0321409C 1.85768 0.0964226 1.39089 0.289268 0.857415 0.546395C 0.590677 0.674958 0.323939 0.867803 0.257254 1.06065C 0.123885 1.51062 -0.209538 2.02487 0.19057 2.47485C 0.19057 2.47485 0.19057 2.53913 0.19057 2.60341C 0.19057 2.86054 0.657362 3.18195 0.990784 3.11766C 1.12415 3.11766 1.25752 3.05338 1.45758 3.05338C 1.85768 3.05338 2.19111 2.92482 2.52453 2.60341C 2.79127 2.34628 3.05801 2.21772 3.32474 1.96059C 3.72485 1.63918 4.19164 1.63918 4.72512 1.5749C 5.19191 1.51062 5.6587 1.44634 6.12549 1.5749C 6.85903 1.76775 7.65924 1.83203 8.39277 2.15344C 9.1263 2.47485 9.92652 2.73197 10.5934 3.18195C 10.9935 3.43907 11.3936 3.76048 11.9271 3.76048C 12.0604 3.76048 12.1938 3.6962 12.2605 3.63192C 12.3272 3.56764 12.2605 3.43907 12.1938 3.37479C 11.9271 3.05338 11.727 2.79626 11.4603 2.53913C 11.1935 2.282 10.8601 2.08916 10.5267 1.89631C 10.1933 1.70347 9.72646 1.63918 9.32635 1.51062C 8.92625 1.63918 8.79288 1.51062 8.59282 1.44634Z"/>
        <path id="path7_fill" d="M 0.840764 2.01431C 0.77609 2.78791 1.61685 2.98132 1.7462 3.56152C 1.55218 3.81939 1.29348 4.07726 1.22881 4.33513C 1.16414 4.59299 0.905439 4.85086 1.16414 5.1732C 1.55218 5.56 1.87555 6.07574 2.65164 6.01127C 3.10436 5.9468 3.7511 5.43107 3.55708 4.9798C 3.49241 4.7864 3.55708 4.59299 3.49241 4.46406C 3.42773 4.14172 3.29838 3.81939 2.97501 3.75492C 2.65164 3.69045 2.2636 3.62599 1.87555 3.56152C 1.94023 3.49705 2.0049 3.43259 2.0049 3.30365C 2.13425 2.98132 2.06957 2.53005 2.2636 2.27218C 2.52229 1.94984 2.39295 1.69197 2.32827 1.36964C 2.32827 1.36964 2.32827 1.30517 2.32827 1.2407C 2.39295 1.2407 2.45762 1.30517 2.52229 1.30517C 2.65164 1.75644 2.71632 2.20771 2.78099 2.65898C 2.84566 2.85238 2.91034 3.04578 3.10436 3.11025C 3.23371 3.17472 3.42773 3.04578 3.55708 2.91685C 3.81578 2.72345 4.0098 2.46558 4.33317 2.14324C 4.33317 2.40111 4.39784 2.53005 4.39784 2.65898C 4.39784 2.98132 4.20382 3.23918 3.94513 3.43259C 3.81578 3.49705 3.7511 3.69045 3.7511 3.81939C 3.7511 3.88386 4.0098 4.07726 4.07447 4.01279C 4.39784 3.94832 4.72122 3.81939 4.97991 3.62599C 5.36796 3.36812 5.62665 2.98132 5.95003 2.59451C 6.20872 2.33665 6.20872 2.07878 5.95003 1.56304C 5.82068 1.30517 5.62665 1.17624 5.30328 1.2407C 4.97991 1.30517 4.72122 1.36964 4.39784 1.43411C 4.39784 0.789435 3.68643 0.0802972 2.91034 0.0158301C 2.52229 -0.048637 2.32827 0.0802972 2.32827 0.4671C 2.32827 0.531567 2.32827 0.531567 2.2636 0.596034C 1.87555 0.402633 1.42283 0.273698 1.03479 0.0802972C 0.646742 -0.113104 0.0646742 0.144764 0 0.596034C 0 1.17624 0.388045 1.82091 0.840764 2.01431Z"/>
        <path id="path8_fill" fill-rule="evenodd" d="M 7.61609 4.00903C 7.68005 4.0683 7.55206 4.18689 7.48804 4.24615C 7.42407 4.30542 7.36005 4.36469 7.29608 4.36469L 7.68005 4.89813C 7.65564 4.92078 7.63116 4.93475 7.61029 4.94672C 7.57654 4.96606 7.55206 4.98004 7.55206 5.01672C 7.55206 5.25378 7.48804 5.49091 7.36005 5.6687C 7.29608 5.78723 7.16803 5.90582 7.04004 5.96509C 6.40002 6.14288 5.63202 5.8465 5.24805 5.31305C 5.1521 5.19458 5.05615 5.09088 4.96021 4.98724C 4.86414 4.88342 4.76807 4.77966 4.67206 4.66107C 4.60803 4.54254 4.60803 4.30542 4.67206 4.24615C 4.73602 4.18689 4.99207 4.12762 5.12006 4.18689L 5.88806 4.54254C 6.20392 4.64001 6.38989 4.49689 6.58838 4.34406C 6.63123 4.3111 6.67462 4.27771 6.72003 4.24615C 5.88806 3.94977 5.05603 3.65338 4.16003 3.65338C 3.328 3.65338 2.68805 3.8905 2.04803 4.30542C 1.664 4.54254 1.15204 4.7796 0.640015 4.54254L 0.0640259 4.18689C 0.0640259 4.18689 0 4.12762 0 4.0683C 0.0275269 3.96631 0.0195312 3.87531 0.0116577 3.78577C 0.0012207 3.66724 -0.00891113 3.55139 0.0640259 3.41632C 0.0895996 3.3689 0.0947266 3.30255 0.0998535 3.23615C 0.107544 3.1366 0.115234 3.03699 0.192017 3.0014C 0.24939 2.966 0.308167 2.92792 0.368591 2.88879C 0.712708 2.66595 1.11005 2.40869 1.60004 2.40869L 2.56 2.40869C 2.95233 2.40869 3.36145 2.42413 3.7616 2.43927C 4.14471 2.4538 4.51965 2.46796 4.86401 2.46796C 4.92804 2.17157 4.99207 1.81592 5.05603 1.401C 5.16992 1.42206 5.27563 1.36816 5.38196 1.3139C 5.5744 1.2157 5.76868 1.11664 6.01605 1.46027L 6.01605 1.22321C 5.95868 1.18781 5.90704 1.1524 5.85773 1.11859C 5.74188 1.03912 5.63867 0.968384 5.50403 0.926819C 5.12006 0.808289 5.12006 0.571167 5.24805 0.334106C 5.37604 0.0969849 5.56805 -0.0808105 5.88806 0.0377197C 6.84808 0.274841 7.36005 1.10468 7.23206 2.05304L 7.23206 2.46796C 7.19958 2.73871 7.18353 2.87201 7.10876 2.94543C 7.03613 3.01666 6.9082 3.03149 6.65607 3.06067C 6.62402 3.06067 6.60803 3.0755 6.59204 3.09033C 6.57605 3.1051 6.56006 3.11993 6.52808 3.11993C 6.72003 3.41632 7.04004 3.59412 7.36005 3.71271C 7.48804 3.77197 7.55206 3.8905 7.61609 4.00903ZM 6.27203 2.76428C 6.20801 2.82355 6.08002 2.94208 5.95203 3.0014C 6.33606 3.11993 6.40002 3.06067 6.52802 2.94208C 6.78406 2.70502 6.72003 2.52722 6.40002 2.2901C 6.37073 2.37158 6.3548 2.45312 6.34003 2.52893C 6.32263 2.61847 6.3067 2.70007 6.27203 2.76428Z"/>
        <path id="path9_fill" d="M 11.1589 0C 11.1589 0 11.0925 0 11.0261 0C 10.6275 0.197246 10.1626 0.262994 9.76405 0.46024C 9.09983 0.657485 8.50203 1.11773 7.90423 1.31497C 7.24001 1.51222 6.50937 1.51222 5.77873 1.64371C 5.57946 1.64371 5.38019 1.64371 5.1145 1.64371C 4.64955 1.70946 4.18459 1.77521 3.71964 1.77521C 2.989 1.70946 2.25835 1.57796 1.52771 1.51222C 1.46129 1.51222 1.32844 1.51222 1.26202 1.44647C 0.92991 1.11772 0.464955 1.05198 0 0.986228C 0.0664221 1.57796 0.464955 1.70946 0.863488 1.84096C 1.7934 2.1697 2.72331 2.49844 3.65322 2.69569C 4.45028 2.82719 5.31377 2.82719 6.17726 2.89294C 6.50937 2.89294 6.77506 2.95868 7.10717 2.95868C 7.5057 3.02443 7.97066 3.09018 8.30277 2.69569C 8.50203 3.02443 8.76772 2.95868 9.03341 2.89294C 9.56479 2.76144 10.0962 2.56419 10.694 2.49844C 11.3582 2.4327 11.8896 2.10395 12.2217 1.51222C 12.2217 1.44647 12.2881 1.38072 12.2881 1.38072C 12.1553 1.11773 12.0888 0.788982 11.956 0.591737C 11.6239 0.262994 11.3582 0.131497 11.1589 0Z"/>
        <path id="path10_fill" d="M 2.74686 1.27658L 2.74686 1.27658C 2.81074 1.21122 2.81074 1.14585 2.87462 1.08048L 2.87462 1.08048C 2.87462 0.949753 2.9385 0.819022 3.00238 0.68829C 3.13014 0.557558 3.06626 0.23073 2.9385 0.099998C 2.74686 -0.0960993 2.6191 0.0346322 2.49134 0.165364C 2.36358 0.296095 2.23582 0.426827 2.10806 0.557558C 1.85253 0.949753 1.34149 1.14585 1.02209 0.949753C 1.21373 1.34195 0.894327 1.34195 0.702685 1.53805C 0.447163 1.79951 0.0638805 1.99561 0 2.45317C 0 2.64926 0 2.77999 0 2.97609C 0 3.36829 0.447163 3.76048 0.830446 3.76048C 1.34149 3.69512 1.85253 3.23756 1.91641 2.71463C 2.04418 2.06097 2.49134 1.73414 2.74686 1.27658L 2.74686 1.27658Z"/>
        <path id="path11_fill" d="M 2.26419 0.268112C 2.26419 0.0963559 2.06441 -0.132652 1.79803 0.0963559C 1.46506 0.382616 1.13209 0.726127 0.732532 1.01239C 0.665938 1.12689 0.532751 1.18414 0.466157 1.29865L 0.466157 1.2414L 0.399563 1.2414L 0.332969 1.29865C 0.266375 1.3559 0 1.3559 0.0665938 1.52765C 0.266375 1.75666 0.266375 1.98567 0.0665938 2.21468C 0 2.27193 0 2.38643 0 2.50094C 0 2.67269 0.0665938 2.7872 0.0665938 2.95895C 0 3.24521 0.133188 3.58873 0.399563 3.70323C 0.665938 3.81773 1.26528 3.76048 1.39847 3.53147C 1.53166 3.30247 1.73144 3.01621 1.46506 2.84445C 1.59825 2.67269 1.79803 2.44369 1.73144 2.32918C 1.53166 1.75666 1.66485 1.29865 2.131 0.897883C 2.33078 0.668875 2.33078 0.439868 2.26419 0.268112Z"/>
        <path id="path12_fill" d="M 0.130915 3.34863C 0.130915 3.34863 0.392746 3.34863 0.458204 3.28297C 0.654577 3.08599 0.785492 2.88901 0.916407 2.69204C 1.11278 2.36374 1.30915 2.1011 1.7019 1.90412C 1.89827 1.83846 2.02919 1.64149 2.22556 1.57583L 2.29102 1.64149C 2.1601 1.7728 2.09465 1.96978 1.89827 2.03544C 1.44007 2.36374 1.11278 2.7577 1.11278 3.28297C 1.11278 3.41429 1.2437 3.67693 1.37461 3.74259C 1.57098 3.80825 1.89827 3.67693 1.89827 3.61127C 1.96373 3.02033 2.48739 2.88901 2.81468 2.62638C 3.33834 2.16676 3.60017 2.16676 3.99292 2.4294C 4.05837 2.36374 4.18929 2.29808 4.25475 2.23242C 4.45112 2.16676 4.71295 2.16676 4.90932 2.16676C 5.1057 2.16676 5.43299 1.7728 5.36753 1.57583C 5.1057 0.984891 4.51658 0.722254 3.79654 0.919232C 3.33834 1.05055 2.94559 1.24753 2.48739 1.37885C 2.55285 1.18187 2.68376 0.984891 2.74922 0.787913C 2.81468 0.656594 2.81468 0.393956 2.74922 0.328297C 2.61831 0.131319 2.35648 0 2.1601 0C 1.63644 0 1.2437 0.328297 1.04732 0.787913C 0.654577 1.44451 0.130915 1.96978 0 2.7577C -3.72084e-14 2.95467 0.0654577 3.15165 0.130915 3.34863Z"/>
        <path id="path13_fill" d="M 2.46684 2.96987C 2.59667 3.09702 2.59667 3.28774 2.66159 3.41489C 2.79142 3.73277 2.85634 3.98707 2.98617 4.30494C 3.05109 4.43209 3.24584 4.55924 3.31075 4.49567C 3.57042 4.43209 3.76517 4.30494 3.76517 3.98707C 3.76517 3.47847 3.76517 2.90629 3.83009 2.39769C 3.89501 1.82551 3.63534 1.31691 3.24584 0.935462C 2.85634 0.554012 2.337 0.299711 1.88259 0.108986C 1.23342 -0.145315 0.649168 0.0454108 0.324584 0.681162C 0.19475 0.935462 0.129834 1.25334 0 1.63479C 0.454417 1.82551 0.908835 1.95266 1.36325 2.14339C 1.81767 2.39769 2.14225 2.71556 2.46684 2.96987Z"/>
        <path id="path14_fill" d="M 0.552642 2.54797C 0.881835 3.00095 1.34271 3.34068 2.00109 3.51054C 2.13277 3.56716 2.26445 3.62378 2.39613 3.68041C 2.5278 3.73703 2.79116 3.79365 2.857 3.73703C 2.98867 3.56716 3.12035 3.3973 3.05451 3.22743C 3.05451 3.05757 2.857 2.94432 2.79116 2.77446C 2.59364 2.43473 2.39613 2.095 2.26445 1.75527C 2.19861 1.52878 2.19861 1.3023 2.19861 1.07581L 2.26445 1.07581C 2.19861 0.905946 2.13277 0.792703 2.13277 0.622838C 2.06693 0.283108 1.80358 0 1.40854 0C 0.947674 0 0.486803 0.0566216 0.15761 0.396351C -0.0399064 0.566216 -0.0399064 1.52878 0.091771 1.75527C 0.223448 1.98176 0.355126 2.26487 0.552642 2.54797Z"/>
        <path id="path15_fill" d="M 0.00489608 0.927673C 0.00489608 1.74528 0.544689 2.56289 1.0245 2.94025C 1.08448 2.94025 1.08448 3.06604 1.08448 3.06604C 1.14446 3.12893 1.20444 3.25472 1.26441 3.25472C 1.8042 3.4434 2.10409 3.88365 2.46395 4.26101C 2.58391 4.3239 2.64388 4.44968 2.76384 4.51258C 2.88379 4.3239 2.88379 4.26101 2.94377 4.19811C 3.1237 4.07233 3.1237 3.63207 2.88379 3.50629C 2.46395 3.25472 2.16407 2.81446 1.92416 2.37421C 1.68425 1.93396 1.8042 1.49371 1.74423 1.05346C 1.68425 0.801887 1.74423 0.487421 1.62427 0.298742C 1.20444 -0.141509 0.72462 -0.0157233 0.244804 0.172956C -0.0550809 0.361635 0.00489608 0.6761 0.00489608 0.927673Z"/>
        <path id="path16_fill" d="M 3.70459 4.07874C 3.63687 4.01337 3.56915 3.948 3.50143 3.88263C 3.36599 3.75189 3.29827 3.55578 3.16283 3.49041C 2.41792 3.09819 2.14704 2.44449 1.94388 1.79079C 1.94388 1.72542 1.94388 1.66005 1.94388 1.59468C 2.28248 1.26783 2.21476 1.00635 2.0116 0.614134C 1.87616 0.287284 1.26668 -0.104935 0.928083 0.0258045C 0.318606 0.156544 -0.155432 0.940984 0.0477268 1.52931C 0.250886 2.18301 0.724924 2.57523 1.19896 3.03282C 1.19896 3.09819 1.26668 3.09819 1.26668 3.16356C 1.673 3.42504 2.28248 3.42504 2.48564 3.948C 2.48564 4.01337 2.55336 4.01337 2.62108 4.01337C 2.75651 4.07874 2.89195 4.07874 2.95967 4.14411C 3.16283 4.40559 3.36599 4.6017 3.84003 4.47096C 3.84003 4.34022 3.77231 4.20948 3.70459 4.07874Z"/>
        <path id="path17_fill" d="M 0.744942 2.55712C 0.936659 2.75768 1.25619 2.82453 1.384 3.09195C 1.63962 3.62677 2.15087 3.76048 2.66212 3.76048C 2.78993 3.76048 2.98165 3.62677 3.04555 3.49307C 3.10946 3.35936 3.04555 3.09195 2.98165 3.02509C 2.66212 2.95824 2.72602 2.62397 2.59821 2.49026C 2.53431 2.42341 2.53431 2.22285 2.40649 2.156C 2.08697 1.88858 2.08697 1.48746 2.02306 1.2869C 2.08697 0.551509 1.83134 0.284095 1.25619 0.083534C 0.936659 -0.0501732 0.553224 -0.0501732 0.361506 0.284095C 0.105883 0.685216 -0.149741 1.15319 0.105883 1.62117C 0.361506 1.95543 0.489318 2.35656 0.744942 2.55712Z"/>
        <path id="path18_fill" d="M 6.14405 0.173561C 6.08005 0.115707 6.01605 0 5.95205 0C 5.05604 0.0578536 4.09603 0.115707 3.20003 0.173561C 2.36802 0.231414 1.60001 0.231414 0.768006 0.289268C 0.320003 0.231414 0.256002 0.289268 0.192002 0.752096C 0.192002 0.925657 0.0640005 1.09922 0 1.27278C 0 1.33063 0 1.44634 0 1.50419C 0.0640005 1.50419 0.128001 1.50419 0.256002 1.50419C 0.960007 1.38849 1.66401 1.27278 2.36802 1.15707C 3.45603 0.983511 4.60804 0.80995 5.69604 0.578536C 5.88805 0.636389 6.01605 0.347121 6.14405 0.173561Z"/>
        <path id="path19_fill" d="M 1.8984 0.890042C 1.83294 0.622654 1.63656 0.28842 1.44017 0.154727C 0.720084 -0.313201 0.196387 0.355267 0 1.15743C 0.0654622 1.6922 0.130924 2.16013 0.458236 2.62806C 0.785547 3.02914 1.0474 3.49707 1.24378 4.03184C 1.37471 4.36608 1.70202 4.56662 1.96387 4.49977C 2.16025 4.43292 2.35664 4.09869 2.29118 3.76445C 2.22572 3.49707 2.16025 3.22968 1.96387 3.02914C 1.76748 2.69491 1.83294 2.36067 1.76748 2.02644C 2.09479 1.6922 1.8984 1.29112 1.8984 0.890042Z"/>
        <path id="path20_fill" d="M 0.826775 1.07755C 0.275592 1.25904 0 1.50103 0 1.98502C 0.206694 1.98502 0.413388 1.98502 0.551183 2.10601C 0.964571 2.2875 1.30906 1.98502 1.72245 2.16651C 2.20473 2.348 2.75592 2.22701 3.2382 2.04551C 3.65159 1.92452 3.85828 1.68253 3.78939 1.25904C 3.78939 1.19854 3.78939 1.19854 3.78939 1.13805C 3.92718 0.714563 3.78939 0.472572 3.3071 0.170083C 3.03151 -0.0114106 2.41143 -0.0719083 2.20473 0.109585C 1.92914 0.291078 1.72245 0.533069 1.51575 0.654065C 1.30906 0.896056 1.03347 1.01705 0.826775 1.07755Z"/>
        <path id="path21_fill" d="M 2.16379 2.73067C 2.16379 2.67036 2.03361 2.67036 2.03361 2.61005C 1.96852 2.30852 1.77325 2.00699 1.64307 1.88638C 1.25252 1.22301 1.77325 0.74056 1.90343 0.077192C 1.70816 0.077192 1.51289 -0.0434205 1.31761 0.0168857C 1.12234 0.077192 0.992158 0.197804 0.796885 0.318417C 0.666703 0.439029 0.536521 0.559642 0.47143 0.680254C 0.406339 1.04209 0.0157937 1.34362 0.145976 1.76577L 0.0808847 1.82607C -0.114388 2.0673 0.0808847 2.18791 0.276158 2.24822C 0.0808847 2.42913 0.0808847 2.61005 0.406339 2.73067C 0.47143 2.73067 0.47143 2.79097 0.536521 2.79097C 0.796885 3.27342 0.992158 3.81618 1.77325 3.75587C 2.0987 3.75587 2.35907 3.57495 2.29398 3.27342C 2.29398 3.21312 2.29398 3.0925 2.29398 3.0322C 2.22889 2.97189 2.22889 2.85128 2.16379 2.73067Z"/>
        <path id="path22_fill" d="M 3.7516 0.559437C 3.81413 0.489507 3.87666 0.209789 3.81413 0.139859C 3.7516 0.0699296 3.56402 0 3.43897 0C 2.93876 0.209789 2.43854 0.489507 1.93833 0.699296C 1.68822 0.839155 1.43811 0.909085 1.18801 0.909085C 1.00043 0.909085 0.875374 0.769226 0.750321 1.04894C 0.687794 1.11887 0.562741 1.1888 0.437687 1.1888C 0.125053 1.25873 0.250107 1.74824 0 1.8881C 0.0625267 2.09789 0.18758 2.30768 0.250107 2.44754C 0.37516 2.86711 0.937901 3.14683 1.25053 2.93704C 1.6257 2.65733 2.00086 2.37761 2.37602 2.02796C 2.8137 1.60838 3.25139 1.11887 3.7516 0.559437Z"/>
        <path id="path23_fill" d="M 0.930653 0.110509C 0.407466 0.510697 -0.311915 0.910885 0.145873 1.84466C 0.145873 1.84466 0.145873 1.91136 0.145873 1.97805C 0.211271 2.84513 0.472865 3.6455 0.930653 4.51258C 1.12685 4.31248 1.38844 4.17909 1.45384 3.97899C 1.51924 3.7122 1.38844 3.37871 1.25764 3.24532C 1.12685 3.11192 1.12685 3.04522 1.12685 2.91183C 1.12685 2.71173 1.19225 2.44494 1.25764 2.17815C 1.51924 1.91136 1.84623 1.71126 2.17322 1.37777C 2.23862 1.31107 2.30402 1.11098 2.30402 0.910885C 2.23862 0.510697 1.97703 0.177207 1.58464 0.0438109C 1.38844 -0.0228871 1.06145 -0.0228871 0.930653 0.110509Z"/>
        <path id="path24_fill" d="M 2.54303 1.43713C 2.66059 1.20719 2.83692 0.977246 2.95447 0.747306C 3.01325 0.517366 3.07202 0.287425 3.07202 0.0574851C 2.89569 0.0574851 2.71936 0.0574851 2.54303 0.11497C 2.48426 0.11497 2.42548 0.172455 2.42548 0.22994C 2.30793 0.517366 2.01404 0.402395 1.83771 0.459881C 1.83771 0.287425 1.83771 0.172455 1.89649 0C 1.19117 0.11497 0.603401 0.402395 0.191964 0.862276C 0.0744105 1.03473 -0.0431429 1.26467 0.0156338 1.49461C 0.0156338 1.60958 0.250741 1.83952 0.368294 1.83952C 0.603401 1.83952 0.897285 1.78204 1.01484 1.60958C 1.24995 1.32216 1.42628 0.977246 1.60261 0.689821C 1.66138 0.632336 1.77894 0.574851 1.89649 0.517366C 1.77894 0.804791 1.66138 1.03473 1.54383 1.26467C 1.54383 1.32216 1.60261 1.43713 1.60261 1.49461C 1.30872 1.83952 1.60261 1.95449 1.77894 2.12695C 1.95527 2.2994 2.24915 2.2994 2.42548 2.12695C 2.60181 1.95449 2.66059 1.78204 2.60181 1.60958C 2.54303 1.49461 2.54303 1.43713 2.54303 1.43713Z"/>
        <path id="path25_fill" d="M 0.29413 1.04136C 0.29413 1.09922 0.426488 1.21492 0.558847 1.21492C 1.0221 1.27278 1.41918 1.27278 1.88243 1.27278C 2.6104 1.33063 3.40455 1.33063 4.13253 1.38849C 4.66196 1.44634 5.19139 1.50419 5.78701 1.50419C 6.18408 1.50419 6.51498 1.50419 6.91205 1.50419C 6.91205 1.44634 6.91205 1.38849 6.91205 1.33063C 4.59578 0.867803 2.34569 0.462828 0.029413 0C 0.029413 0 -0.0367662 0.0578536 0.029413 0.0578536C 0.0955922 0.404975 0.161771 0.694243 0.29413 1.04136Z"/>
        <path id="path26_fill" d="M 4.15324 0.746441C 4.4781 0.8143 4.54307 0.542866 4.60804 0.40715C 4.60804 0.339292 4.4781 0.0678583 4.41312 0.0678583C 4.08827 0 3.76342 0 3.3736 0C 2.98377 0 2.59395 0.0678583 2.33407 0.0678583C 1.8143 0.203575 1.35951 0.339292 0.969688 0.475008C 0.774776 0.542866 0.579865 0.542866 0.384953 0.610725C 0.190042 0.746441 -0.134811 0.882158 0.0601008 1.15359C 0.255012 1.49288 0.514894 1.83217 0.774776 2.10361C 0.904717 2.30718 1.03466 2.30718 1.22957 2.10361C 1.48945 1.90003 1.68436 1.6286 1.94425 1.42502C 2.59395 0.950016 3.30863 0.610725 4.15324 0.746441Z"/>
        <path id="path27_fill" d="M 3.37263 1.02559C 3.57294 0.957213 3.70649 0.752096 3.84003 0.615351C 3.70649 0.478607 3.57294 0.205117 3.4394 0.136745C 3.17231 0.0683724 2.90522 0 2.63814 0C 1.97042 0 1.36947 0.0683724 0.701751 0.0683724C 0.367891 0.0683724 0.100803 0.136745 0.0340315 0.546979C -0.0995123 1.09396 0.167575 1.70931 0.701751 1.84605C 0.768522 1.84605 0.835294 1.9828 0.902066 2.05117C 0.968838 2.11954 0.968838 2.18792 1.03561 2.25629C 1.10238 2.05117 1.23593 1.91443 1.3027 1.77768C 1.43624 1.64094 1.56979 1.50419 1.70333 1.50419C 2.17073 1.36745 2.77168 1.2307 3.37263 1.02559Z"/>
        <path id="path28_fill" d="M 0.193467 1.76272C 0.193467 1.76272 0.334171 1.82258 0.404522 1.82258C 0.474874 1.94231 0.474874 2.00218 0.545226 2.06205C 0.896984 2.30151 0.967336 2.8403 1.67085 2.72057C 1.67085 2.72057 1.7412 2.78044 1.7412 2.8403C 1.81156 3.13963 2.09296 2.96003 2.16331 2.90017C 2.23367 2.72057 2.30402 2.48111 2.30402 2.30151C 2.30402 2.24164 2.16331 2.12191 2.09296 2.06205L 2.16331 2.06205C 2.16331 1.94231 2.16331 1.76272 2.09296 1.70285C 1.88191 1.46339 1.81156 1.22392 1.95226 0.924595C 2.02261 0.744997 2.09296 0.505534 1.81156 0.385802C 1.6005 0.26607 1.38945 0.146339 1.10804 0.026607C 0.967336 -0.0332588 0.826632 0.026607 0.685929 0.026607C 0.263819 0.0864729 0.193467 0.385802 0.0527638 0.685131C -0.0175879 0.804863 -0.0175879 0.924595 0.0527638 1.04433C 0.0527638 1.22392 0.123115 1.46339 0.193467 1.76272Z"/>
        <path id="path29_fill" d="M 0.247423 2.4468C 0.247423 2.70773 0.247423 3.03388 0.301114 3.29481C 0.301114 3.42527 0.301114 3.68619 0.354805 3.68619C 0.515879 3.75143 0.730644 3.88189 0.784335 3.4905C 0.838026 3.29481 0.945409 3.09911 0.9991 2.90342C 1.16017 2.31634 1.37494 1.79449 1.53601 1.20741C 1.48232 1.07695 1.48232 0.881252 1.42863 0.816021C 1.10648 0.555096 0.838026 0.163709 0.462187 0.0332463C 0.0863489 -0.0972161 -0.0747248 0.163709 0.0326577 0.685558C 0.14004 1.33787 0.301114 1.85972 0.247423 2.4468Z"/>
        <path id="path30_fill" d="M 1.22922 0.637062C 1.59994 0.583003 1.78531 0.853297 2.03246 1.01547C 2.21782 1.17765 2.40318 1.33983 2.65033 1.44794C 2.89748 1.55606 3.51535 1.502 3.57714 1.33983C 3.70071 1.12359 3.7625 0.907356 3.82428 0.69112C 3.88607 0.474885 3.7625 0.312709 3.51535 0.25865C 2.83569 0.0424151 2.15603 -0.0657025 1.47637 0.042415C 1.29101 0.0964738 1.10565 0.042415 0.982072 0.0964738C 0.734924 0.204591 0.487775 0.420827 0.178839 0.583003C -0.0683103 0.69112 -0.00652305 0.853297 0.0552642 0.961414C 0.425987 0.853297 0.796711 0.69112 1.22922 0.637062Z"/>
        <path id="path31_fill" d="M 1.22286 0C 1.17066 0 1.01409 0.122791 0.961893 0.184187C 0.857508 0.368374 0.857508 0.552561 0.805315 0.736747C 0.753123 0.859539 0.753123 1.10512 0.70093 1.10512C 0.387774 1.10512 0.335582 1.47349 0.179004 1.65768C -0.134152 2.08745 -0.0297665 2.70141 0.439967 2.88559C 0.596545 2.94699 0.753123 3.00839 0.857508 3.00839C 1.6404 2.7628 1.6404 2.02606 1.37943 1.4121C 1.43163 1.16652 1.53601 0.98233 1.53601 0.798143C 1.53601 0.675352 1.53601 0.491165 1.48382 0.368374C 1.43163 0.245582 1.32724 0.0613956 1.22286 0Z"/>
        <path id="path32_fill" d="M 0.915641 1.91476C 0.915641 2.145 0.854599 2.31768 0.854599 2.49035C 0.854599 2.66303 0.793556 2.77815 1.03773 2.83571C 1.22086 2.83571 1.34294 3.00839 1.46503 3.00839C 1.64815 3.00839 1.95337 2.95083 2.07545 2.83571C 2.31962 2.66303 2.38067 2.37523 2.19754 2.145C 2.07545 2.02988 1.83128 1.97232 1.64815 1.91476C 1.52607 1.91476 1.34294 1.97232 1.15981 2.02988C 1.09877 2.02988 0.976684 2.02988 0.854599 1.97232C 0.976684 1.8572 0.976684 1.74208 1.09877 1.62697C 1.40398 1.39673 1.52607 1.05137 1.52607 0.70602C 1.52607 0.533342 1.46503 0.360665 1.40398 0.187987C 1.34294 0.0728691 1.15981 -0.0422492 1.09877 0.0153099C 0.915641 0.0728691 0.732513 0.187987 0.67147 0.303106C 0.427299 0.763579 0.244171 1.22405 0 1.74208C 0 1.79964 0 1.91476 0.0610428 2.02988L 0.0610428 2.02988L 0.0610428 2.02988L 0.0610428 2.02988C 0.427299 1.97232 0.67147 1.91476 0.915641 1.91476Z"/>
        <path id="path33_fill" d="M 0.907643 3.69538C 0.907643 3.35834 0.907643 3.08871 0.977462 2.88649C 1.1171 2.48204 1.25674 2.145 1.39637 1.80797C 1.67565 1.33611 2.02474 0.931664 2.30402 0.45981C 1.81529 0.0553634 1.32656 -0.14686 0.907643 0.122771C 0.55855 0.324994 0.349094 0.662033 0.139637 0.999072C 0.0698187 1.13389 0 1.2687 0 1.47093C 0.0698187 2.145 0.139637 2.75167 0.139637 3.42575C 0.279275 3.76279 0.488731 3.8302 0.907643 3.69538Z"/>
        <path id="path34_fill" d="M 2.59 0.927071C 2.26625 0.927071 1.9425 0.927071 1.61875 0.927071C 1.35975 0.927071 1.10075 0.80835 0.841749 0.748989C 0.517999 -0.200778 0.453249 -0.022697 0 0.0960239C 0.0647499 0.333466 0.19425 0.511547 0.19425 0.748989C 0.19425 1.28323 0.517999 1.6394 0.971249 1.81748C 1.35975 1.99556 1.813 2.11428 2.26625 2.233C 2.39575 2.29236 2.65475 2.233 2.78425 2.11428C 3.04325 1.9362 3.17275 1.28323 2.9785 1.04579C 2.91375 1.04579 2.7195 0.986431 2.59 0.927071Z"/>
        <path id="path35_fill" d="M 0.101691 1.34353C 0.282474 2.47142 1.60822 2.40508 2.15057 1.94065C 2.39161 1.74161 2.33135 1.54257 2.09031 1.40987C 2.03005 1.34353 1.90952 1.27718 1.90952 1.21083C 1.72874 0.945444 1.54796 0.680056 1.42744 0.414669C 1.30691 0.0829337 1.06587 -0.0497602 0.764563 0.0165867C 0.222213 0.149281 0.0414295 0.348322 0.0414295 0.746403C 0.0414295 0.879097 -0.0188316 0.945444 0.0414295 1.07814C -0.0790927 1.21083 0.101691 1.27718 0.101691 1.34353Z"/>
        <path id="path36_fill" d="M 1.41787 0C 1.29972 0 1.06343 0.0591103 0.945282 0.177331C 0.649916 0.650213 0.354551 1.1231 0.118259 1.53687C -0.177106 2.00975 0.118259 2.77818 0.590843 2.95552C 0.768062 3.01463 1.06343 3.07374 1.18157 2.83729C 1.29972 2.65996 1.41787 2.42352 1.35879 2.24619C 1.24065 1.77331 1.24065 1.41865 1.35879 0.945765C 1.41787 0.768434 1.47694 0.531993 1.53601 0.295552C 1.53601 0.236441 1.47694 0 1.41787 0Z"/>
        <path id="path37_fill" d="M 2.1165 2.04823C 1.7163 1.78394 1.3161 1.51965 1.0493 1.05715C 0.915905 0.792863 0.849206 0.462503 0.649107 0.198216C 0.582407 0.0660719 0.382308 0 0.248909 0C 0.0488098 0 -0.0178899 0.132144 0.0488098 0.33036C 0.115509 0.462503 0.115509 0.660719 0.0488098 0.792863C -0.151289 1.45358 0.315608 2.04823 0.515707 2.57681C 0.649107 2.84109 1.0493 3.10538 1.3828 2.97324C 1.5162 2.97324 1.5829 2.97324 1.5829 2.97324C 1.9164 3.03931 2.0498 2.84109 2.1832 2.57681C 2.3833 2.44466 2.3166 2.24645 2.1165 2.04823Z"/>
        <path id="path38_fill" d="M 0.624253 2.65122C 0.749533 2.98135 0.937453 3.1134 1.25065 2.91532C 1.31329 2.91532 1.31329 2.91532 1.43857 2.84929C 1.37593 2.58519 1.25065 2.32109 1.25065 2.05699C 1.25065 1.79289 1.25065 1.52879 1.31329 1.33072C 1.37593 1.13264 1.43857 0.934566 1.50121 0.736491C 1.56385 0.47239 1.56385 0.142264 1.31329 0.0762393C 1.00009 0.0102141 0.624253 -0.055811 0.311054 0.0762393C -0.00214568 0.142264 -0.0647856 1.13264 0.0604942 1.39674C 0.248414 1.79289 0.436334 2.18904 0.624253 2.65122Z"/>
        <path id="path39_fill" d="M 0.170501 1.88919C 0.225121 1.95914 0.388983 2.09904 0.443603 2.23894C 0.607464 2.72859 0.989807 2.79854 1.31753 3.00839C 1.37215 3.00839 1.53601 2.93844 1.53601 2.93844C 1.53601 2.72859 1.53601 2.51874 1.48139 2.30889C 1.42677 1.74929 1.15367 1.25964 1.26291 0.630092C 1.37215 0.140444 1.04443 -0.139356 0.607464 0.0704938C 0.552844 0.0704938 0.498223 0.0704938 0.498223 0.0704938C 0.00663939 0.280343 -0.157222 0.979841 0.170501 1.53944C 0.170501 1.67934 0.170501 1.81924 0.170501 1.88919Z"/>
        <path id="path40_fill" d="M 2.27696 0.329444C 2.19971 0.268934 2.12245 0.147914 2.0452 0.0874036C 1.81343 -0.094127 1.11814 0.0268934 0.886373 0.268934C 0.500098 0.753016 0.191078 1.29761 0.0365685 1.8422C -0.0406865 2.32628 -0.0406865 2.50781 0.500098 2.74985C 0.577353 2.74985 0.577353 2.81036 0.654608 2.87087C 0.731863 2.93138 0.886373 3.0524 0.886373 2.99189C 1.04088 2.93138 1.19539 2.87087 1.19539 2.74985C 1.19539 2.56832 1.27265 2.32628 1.19539 2.14475C 1.11814 1.8422 1.27265 1.66067 1.50441 1.47914C 1.89069 1.17659 2.43147 0.874036 2.27696 0.329444Z"/>
        <path id="path41_fill" d="M 1.07556 1.38865C 0.895151 1.06791 0.955287 0.811317 0.895151 0.554725C 0.895151 0.362281 0.774879 0.105689 0.654607 0.041541C 0.474199 -0.086755 0.293791 0.105689 0.233655 0.298133C -0.0670253 1.00376 -0.0670253 1.70939 0.173519 2.47916C 0.293791 2.7999 0.474199 2.99235 0.895151 2.99235C 1.1357 3.0565 1.37624 2.9282 1.49651 2.60746C 1.55665 2.47916 1.55665 2.15842 1.43638 2.09428C 1.3161 1.83768 1.19583 1.64524 1.07556 1.38865Z"/>
        <path id="path42_fill" d="M 2.23819 0.143669C 2.17236 0.0718345 1.97487 0 1.84321 0C 1.25075 0.143669 0.789949 0.574676 0.329145 0.933849C 0.131658 1.07752 0 1.29302 0.0658291 1.58036L 0 1.65219C 0.0658291 1.79586 0.131658 2.01137 0.263316 2.15504C 0.526633 2.37054 1.11909 2.22687 1.31658 1.8677C 1.38241 1.72403 1.44824 1.58036 1.5799 1.43669C 1.84321 1.14935 2.10653 0.862014 2.30402 0.574676C 2.30402 0.502842 2.30402 0.287338 2.23819 0.143669Z"/>
        <path id="path43_fill" d="M 2.30402 0.133801C 2.18893 0.0669005 2.07385 0 1.95877 0C 1.67105 0 1.3258 0.0669005 1.03809 0.0669005L 1.03809 0.0669005C 0.980548 0.0669005 0.865464 0.0669005 0.807922 0.0669005C 0.577753 0.200702 0.2325 0.267602 0.0598737 0.468304C -0.0552106 0.669005 0.00233153 1.13731 0.174958 1.27111C 0.347584 1.47181 0.635295 1.60561 0.923006 1.40491C 1.3258 1.07041 1.78614 0.802806 2.18893 0.468304C 2.24648 0.401403 2.24648 0.267602 2.30402 0.133801Z"/>
        <path id="path44_fill" d="M 1.18917 0C 1.18917 0.115707 1.18917 0.173561 0.990975 0.115707C 0.52852 0 0.330325 0.115707 0.198195 0.520682C 0.13213 0.694243 0.066065 0.80995 0 0.98351L 0 0.98351L 0 0.98351L 0 0.98351L 0 0.98351C 0 1.04136 0.066065 1.09922 0.066065 1.15707C 0.13213 1.38849 0.066065 1.6199 0.198195 1.85131C 0.26426 2.02487 0.39639 2.14058 0.52852 2.25629C 0.594585 2.14058 0.726715 2.08273 0.79278 1.96702C 0.92491 1.79346 0.990975 1.56205 1.18917 1.44634C 1.65163 1.15707 1.65163 0.347121 1.18917 0Z"/>
        <path id="path45_fill" d="M 2.25568 0.478607C 2.32013 0.410234 2.32013 0.205117 2.25568 0.136745C 2.12679 0.0683724 1.93344 0 1.86899 0C 1.41786 0.27349 0.966721 0.546979 0.580033 0.820469C 0.32224 1.02559 0.193344 1.36745 0 1.64094L 0.0644481 1.70931C 0 2.05117 0.257792 2.18792 0.451136 2.25629C 0.644481 2.25629 0.902273 2.18792 1.03117 2.05117C 1.48231 1.50419 1.80455 0.957213 2.25568 0.478607Z"/>
        <path id="path46_fill" d="M 2.30402 0.299686C 2.02399 0.0306476 1.79996 -0.130776 1.51993 0.138263C 1.2399 0.407302 0.903857 0.407302 0.511812 0.46111C 0.399799 0.46111 0.175773 0.514918 0.119766 0.622533C -0.048253 0.837764 -0.048253 1.16061 0.175773 1.32203C 0.455805 1.53727 0.84785 1.59107 1.01587 1.32203C 1.18389 0.999188 1.57593 0.94538 1.79996 0.730149C 1.91197 0.514918 2.136 0.407302 2.30402 0.299686Z"/>
        <path id="path47_fill" d="M 1.06789 1.28363C 1.18492 0.898544 1.24344 0.449272 1.53601 0.128363C 1.53601 0.0641817 1.4775 0.0641817 1.4775 0C 1.30195 0.0641817 1.06789 0.0641817 0.89235 0.128363C 0.77532 0.192545 0.716806 0.320909 0.658291 0.38509C 0.307202 0.705999 0.0731434 1.02691 0.0146287 1.47618C -0.0438861 1.79709 0.0731434 2.05381 0.365717 2.18218C 0.541261 2.24636 0.77532 2.31054 0.950865 2.18218C 1.18492 2.05381 1.24344 1.79709 1.12641 1.47618C 1.00938 1.47618 1.06789 1.34782 1.06789 1.28363Z"/>
        <path id="path48_fill" d="M 1.16829 0C 1.04571 0 0.861852 0.0605715 0.800565 0.181715C 0.67799 0.424001 0.616703 0.424001 0.371554 0.181715C 0.432841 0.424001 0.432841 0.545144 0.494129 0.726858C 0.432841 0.726858 0.371554 0.726858 0.24898 0.726858C 0.187692 0.969144 0.187692 1.21143 0.0651177 1.45372C -0.118744 1.75657 0.126405 1.93829 0.310267 2.12C 0.555416 2.30172 0.800565 2.30172 1.04571 2.12C 1.22958 1.93829 1.29086 1.696 1.16829 1.45372C 0.923139 1.02972 0.923139 0.969144 1.35215 0.666287C 1.41344 0.605715 1.53601 0.424001 1.53601 0.363429C 1.47472 0.121143 1.29086 0 1.16829 0Z"/>
        <path id="path49_fill" d="M 1.41778 0.208961C 1.34316 0.0696537 1.1193 0 0.97006 0C 0.44772 0.0696537 0.07462 0.626883 0.07462 1.32342C 0.07462 1.32342 0 1.46273 0 1.53238C 0 1.811 0.14924 2.01996 0.44772 2.15926C 0.7462 2.22892 0.97006 2.36823 1.26854 2.08961C 1.56702 1.811 1.41778 1.53238 1.41778 1.18411C 1.41778 1.04481 1.34316 0.766191 1.41778 0.696537C 1.64164 0.55723 1.4924 0.348268 1.41778 0.208961Z"/>
        <path id="path50_fill" d="M 1.28469 0.564072C 1.36947 0.282036 1.45425 0.070509 1.11513 0C 0.860786 0 0.436885 0.141018 0.352105 0.352545C 0.182544 0.70509 0.0977638 1.12814 0.0129836 1.48069C -0.0717967 1.90374 0.267324 2.25629 0.776006 2.25629C 1.53903 2.25629 1.70859 1.97425 1.36947 1.41018C 1.28469 1.12814 1.19991 0.846108 1.28469 0.564072Z"/>
        <path id="path51_fill" d="M 1.1086 1.38353C 1.53601 1.03764 1.64287 0.691763 1.42916 0C 1.05517 0.55341 0.627761 0.622587 0.0934964 0.345882C -0.0133566 0.691763 -0.0667831 0.968468 0.146923 1.24517C 0.360629 1.52188 0.894894 1.59105 1.1086 1.38353Z"/>
        <path id="path52_fill" d="M 0 0.689422C 0 0.94012 0 1.12814 0.0550458 1.37884C 0.0550458 1.44152 0.165137 1.50419 0.220183 1.50419C 0.715595 1.50419 1.15596 1.44152 1.43119 0.877446C 1.59633 0.501397 1.59633 0.250699 1.21101 0C 0.935778 0.438723 0.605504 0.752096 0 0.689422Z"/>
        <path id="path53_fill" d="M 0.864626 0.0125897C 0.461134 0.0929754 0.0576417 0.896833 0 1.45953C 0.576417 1.53992 1.03755 1.53992 1.26812 1.21838C 1.44104 1.0576 1.61397 0.816447 1.49868 0.494904C 1.3834 0.253747 1.21048 -0.0677961 0.864626 0.0125897Z"/>
        <path id="path54_fill" d="M 0.162398 0.656178C 0.541326 0.850773 0.974386 0.704827 1.35331 0.607529C 1.51571 0.55888 1.56984 0.510231 1.51571 0.364285C 1.51571 0.266987 1.46158 0.218339 1.46158 0.121041C 1.13678 0.121041 0.866121 0.121041 0.595458 0.0723921C 0.0541326 -0.0735543 0 -0.0249055 0 0.461583C -1.53854e-14 0.55888 0.108265 0.656178 0.162398 0.656178Z"/>
        <path id="path55_fill" d="M 0.290422 0.752096C 0.813183 0.752096 1.16169 0.584964 1.5102 0.376048C 1.56828 0.334265 1.5102 0.125349 1.5102 0C 1.39403 0.0417831 1.27786 0.0417831 1.16169 0.0835663C 0.929352 0.125349 0.697014 0.167133 0.464676 0.208916C 0.290422 0.208916 0.174253 0.250699 0 0.250699C 0.0580845 0.376048 0.0580845 0.543181 0.116169 0.66853C 0.116169 0.710313 0.232338 0.710313 0.290422 0.752096Z"/>
        <path id="path56_fill" d="M 1.09753 0.752096C 1.23472 0.752096 1.44051 0.700859 1.5091 0.649621C 1.5777 0.598383 1.5091 0.393432 1.37191 0.342195C 1.23472 0.239719 1.09753 0.188482 0.891742 0.137244C 0.411573 -0.118945 0.0685955 -0.0164693 0 0.44467C 0.205787 0.547145 0.342978 0.598383 0.480169 0.649621C 0.685955 0.752096 0.891742 0.752096 1.09753 0.752096Z"/>
        <path id="path57_fill" fill-rule="evenodd" d="M 2.30402 1.12817C 2.30402 1.74573 2.01654 2.30719 1.03925 2.25104C 0.406799 2.30719 0.0618896 1.91418 0.00439453 1.07202C -0.0531006 0.622864 0.464294 0.00524902 0.924255 0.00524902C 1.78662 -0.0508423 2.30402 0.342163 2.30402 1.12817ZM 1.49915 1.18427C 1.44165 1.01587 1.32666 0.79126 1.15417 0.735107C 1.03925 0.678955 0.809265 0.847412 0.694275 1.12811C 0.769897 1.17737 0.834473 1.24817 0.892822 1.31219C 0.96759 1.39417 1.03217 1.46497 1.09668 1.46497C 1.26917 1.46497 1.49915 1.24042 1.49915 1.18427Z"/>
    </defs>
</svg>
