<svg width="27" height="20" viewBox="0 0 27 20" version="1.1" xmlns="http://www.w3.org/2000/svg" xmlns:xlink="http://www.w3.org/1999/xlink">
    <title>Group 2</title>
    <desc>Created using Figma</desc>
    <g id="Canvas" transform="translate(815 -3)">
        <g id="Group 2">
            <g id="Rectangle">
                <use xlink:href="#path0_fill" transform="translate(-815 3)"/>
            </g>
            <g id="Rectangle Copy">
                <use xlink:href="#path0_fill" transform="translate(-815 11)"/>
            </g>
            <g id="Rectangle Copy 2">
                <use xlink:href="#path0_fill" transform="translate(-815 19)"/>
            </g>
        </g>
    </g>
    <defs>
        <path id="path0_fill" fill-rule="evenodd" d="M 0 1.5C 0 0.671573 0.671573 0 1.5 0L 25.5 0C 26.3284 0 27 0.671573 27 1.5L 27 2.5C 27 3.32843 26.3284 4 25.5 4L 1.5 4C 0.671573 4 0 3.32843 0 2.5L 0 1.5Z"/>
    </defs>
</svg>
