<?xml version="1.0" encoding="utf-8"?>
<!-- Generator: Adobe Illustrator 22.0.1, SVG Export Plug-In . SVG Version: 6.00 Build 0)  -->
<svg version="1.1" id="Layer_1" xmlns="http://www.w3.org/2000/svg" xmlns:xlink="http://www.w3.org/1999/xlink" x="0px" y="0px"
	 viewBox="0 0 110 50" style="enable-background:new 0 0 110 50;" xml:space="preserve">
<style type="text/css">
	.st0{fill-rule:evenodd;clip-rule:evenodd;fill:#E51B4C;}
	.st1{fill:#D9D9D9;}
	.st2{fill:#344A99;}
</style>
<g>
	<g>
		<path class="st0" d="M66.6,3.5C63,2.5,59.1,2,55.1,2c-4,0-8,0.5-11.5,1.5c-7.6,2.1-13.4,6.3-13.3,12.8c0.5,1.8,1.3,3,2.3,3.9
			c1,0.9,2.3,1.5,3.8,1.8h10.3l-2,22.4H54h2.9h9.3l-2-22.4h9.7c1.5-0.3,2.8-0.9,3.8-1.8c1-0.9,1.8-2.2,2.3-3.9
			C80,9.8,74.2,5.5,66.6,3.5z"/>
		<path class="st1" d="M68.5,46.4H42.3l2-22.4H36L35.8,24c-1.9-0.4-3.5-1.2-4.7-2.3c-1.4-1.2-2.3-2.9-2.9-4.9l-0.1-0.2l0-0.2
			C28,9.5,33.4,4.1,43,1.5c7.4-2,16.8-2,24.2,0h0c9.6,2.6,15,8,14.9,14.8l0,0.2L82,16.8c-0.6,2.1-1.5,3.7-2.9,4.9
			c-1.2,1.1-2.8,1.9-4.7,2.3L74.1,24h-7.6L68.5,46.4z M47,42.3h16.9l-2-22.4h11.7c1.1-0.3,1.9-0.7,2.6-1.2c0.7-0.6,1.2-1.5,1.6-2.7
			C77.7,9.3,69.5,6.4,66,5.4h0c-6.6-1.8-15.3-1.8-21.9,0c-3.5,1-11.7,3.9-11.8,10.5c0.4,1.2,0.9,2.1,1.6,2.7c0.6,0.6,1.5,1,2.6,1.2
			h12.4L47,42.3z"/>
	</g>
	<g>
		<g>
			<path class="st2" d="M9.5,40.9c0,0.1-0.6,0.8-0.6,0.9c-0.7,0.7-1.8,1-2.8,1.1C5.4,43,4.8,43,4.1,43c0,0.5-0.2,1-0.1,1.4
				c0.1,0.4,0.2,0.9,0.3,1.3c0.1,0.4,0,0.6,0,0.7c0.1,0.9,0.3,2.4,0.3,3.3C3.6,49.9,2.7,50,1.7,50c-0.1-0.4-0.2-0.8-0.2-1.2
				c0-0.3-0.1-0.7,0.1-0.9c0,0,0.1-0.1,0.1-0.1c0-0.2-0.3-0.5-0.3-0.6c0,0,0-0.4,0-0.4l0,0c0-0.9-0.1-1.9-0.2-2.8
				c0-0.3-0.1-0.5-0.1-0.8l0,0c0-0.1,0-0.4,0.1-0.5c-0.2-0.9-0.3-1.8-0.5-2.8c-0.2-1.7-0.4-3.5-0.6-5.2l0.3-0.2c1-0.1,2-0.3,3.1-0.4
				c0.9-0.1,3-0.3,3.8,0c0.2,0.1,0.9,0.5,1,0.7c0,0,0,0,0,0.1c0,0.1,0,0.2,0,0.3c0,0,0,0.1,0,0.1c0.1,0,0.6,0.2,0.7,0.3
				C9.2,36,9.4,37,9.5,37.6C9.6,38.2,9.8,40.3,9.5,40.9 M6.3,36.8c-0.3-0.3-0.3-0.3-0.4-0.4c0,0,0-0.1,0-0.3c0-0.3-1.9-0.1-2.2,0
				c-0.1,0.2-0.3,0.2-0.4,0.3c0,0.4,0.1,0.8,0.1,1.2l0,0L3.4,38c0.1,1,0.3,1.9,0.4,2.9c0.5-0.1,1-0.1,1.5-0.1c0.2,0,0.5-0.1,0.7-0.1
				c0.7-0.3,0.6-2.3,0.5-2.8C6.5,37.5,6.4,37.1,6.3,36.8"/>
		</g>
		<g>
			<path class="st2" d="M22,46.1c-0.2,0.7-1.2,1.6-2,1.8c-0.5,0.2-1.1,0.4-1.7,0.4c-0.7,0.1-1.3,0.1-2,0c-0.1,0-0.1,0-0.2,0
				c-0.1,0-0.3,0.1-0.4,0.1c-0.5,0.1-0.7-0.5-1-0.5c-0.1,0-0.2,0.1-0.3,0.1c-0.3,0-0.1-0.3-0.3-0.4c-0.1-0.1-0.3,0-0.5-0.1
				c-0.7-0.4-1.2-2.9-1.4-4.5c-0.1-0.4-0.1-0.7-0.1-0.9c0-0.3-0.1-0.6-0.1-0.8l0,0c0,0,0-0.1,0-0.1c0.1-0.3,0-1.1,0-1.5
				c0,0,0-0.1,0-0.1l0-0.3c-0.1,0-0.1-0.1-0.1-0.1c0-0.2,0-0.4,0-0.5l0,0.1c0,0-0.2-0.2-0.2-0.2c-0.1-0.7-0.3-3.8,0.2-4.3
				c0.1-0.1,0.4-0.1,0.5-0.2c0.1-0.1,0-0.3,0.1-0.4c0.5-0.6,2.3-1.2,3.1-1.3c1.3-0.2,4,0.2,4.8,1.1c0.6,0.7,1.2,4.7,1.3,5.7
				C21.8,40.4,22.3,45.1,22,46.1 M17.3,34.8c-0.4-0.2-1-0.2-1.4-0.2c-0.7,0.1-1.2,0.5-1.4,1c-0.2,0.5,0.4,4.7,0.4,5.4
				c0.1,0.7,0.6,4.4,0.9,4.8c0.3,0.4,1.2,0.6,1.7,0.5c0.2,0,0.4-0.1,0.5-0.1l0-0.1c0.3-0.2,0.6-0.4,0.7-0.6c0.3-0.5-0.2-4.4-0.3-5.1
				C18.5,39.7,17.9,35.1,17.3,34.8"/>
		</g>
		<g>
			<path class="st2" d="M56.1,41.8c-0.2,0.7-1.2,1.6-2,1.8C53.6,43.8,53,44,52.4,44c-0.7,0.1-1.3,0.1-2,0c-0.1,0-0.1,0-0.2,0
				c-0.1,0-0.3,0.1-0.4,0.1c-0.5,0.1-0.7-0.5-1-0.5c-0.1,0-0.2,0.1-0.3,0.1c-0.3,0-0.1-0.3-0.3-0.4c-0.1-0.1-0.3,0-0.5-0.1
				c-0.7-0.4-1.2-2.9-1.4-4.5c-0.1-0.4-0.1-0.7-0.1-0.9c0-0.3-0.1-0.6-0.1-0.8l0,0c0,0,0-0.1,0-0.1c0.1-0.3,0-1.1,0-1.5
				c0,0,0-0.1,0-0.1l0-0.3c-0.1,0-0.1-0.1-0.1-0.1c0-0.2,0-0.4,0-0.5l0,0.1c0,0-0.2-0.2-0.2-0.2c-0.1-0.7-0.3-3.8,0.2-4.3
				c0.1-0.1,0.4-0.1,0.5-0.2c0.1-0.1,0-0.3,0.1-0.4c0.5-0.6,2.3-1.2,3.1-1.3c1.3-0.2,4,0.2,4.8,1.1C55,30,55.5,34,55.7,35
				C55.8,36.1,56.4,40.8,56.1,41.8 M51.4,30.5c-0.4-0.2-1-0.2-1.4-0.2c-0.7,0.1-1.2,0.5-1.4,1c-0.2,0.5,0.4,4.7,0.4,5.4
				c0.1,0.7,0.6,4.4,0.9,4.8c0.3,0.4,1.2,0.6,1.7,0.5c0.2,0,0.4-0.1,0.5-0.1l0-0.1c0.3-0.2,0.6-0.4,0.7-0.6c0.3-0.5-0.2-4.4-0.3-5.1
				C52.6,35.4,51.9,30.8,51.4,30.5"/>
		</g>
		<g>
			<path class="st2" d="M33.1,46.3c-0.3,0-0.9,0.1-1.1,0c-0.4-0.1-2.6-3.7-3-4.3c0,0,0-0.1,0-0.2c0-0.2-0.1-0.5-0.1-0.6
				c-0.3-0.4-0.7-0.7-1.1-1.1c-0.1,0.1-0.2,0.1-0.3,0.2c0,0.5-0.1,1,0,1.5c0.1,0.8,0.4,1.5,0.5,2.3c0.1,0.8,0,1.7,0.2,2.5
				c0,0.1,0,0.2,0,0.3c-0.5,0.1-1.1,0.2-1.6,0.3c-0.5,0.1-0.9,0.1-1.4,0.1l-0.7-5.2c0.2-0.1,0.5-0.2,0.6-0.4c-0.1-0.1-0.3,0-0.5-0.1
				c-0.1-0.2,0-0.3-0.2-0.4c0.2-0.1,0.1-0.4,0.1-0.6l-0.1,0c0,0-0.1-0.1-0.1-0.1c0-0.1,0-0.2,0-0.3c0,0,0-0.1-0.1-0.1
				c0-1.5-0.2-3-0.4-4.5c0-0.2,0-0.3-0.1-0.5c0-0.3-0.1-0.6-0.1-1c-0.1-0.3-0.3-0.6-0.3-0.9c-0.1-0.4,0-0.9,0-1.3c0,0,0,0,0.1,0
				c0.1,0,0.2,0,0.2,0c0.1,0,0.1-0.1,0.1-0.1c0,0,0.4,0,0.4,0l-0.1,0.1c0.9-0.4,1.3-0.5,2.1-0.6c0.1,0,0.2,0,0.4,0c0,0,0.1,0,0.1,0
				c0.9-0.1,1.8-0.2,2.7-0.1l0.3,0.2c0,0,0.1,0,0.1,0c0.1,0,0.2-0.1,0.4-0.1c0.2,0,1,0.4,1.2,0.5l0,0.3c0.1,0.1,0.3-0.1,0.5,0.1
				c0.3,0.2,0.3,0.8,0.4,1c0.1,0.1,0.3,0.2,0.4,0.4l0,0l0,0c0,0.2-0.1,0.4-0.1,0.7c0.1,0.6,0.2,1.1,0.3,1.7c0.1,0.7,0.1,1.4-0.1,2.1
				c-0.3,0.9-1.6,1.3-1.6,2.1c0.1,0.1,0.2,0.2,0.4,0.2l0,0.1c0-0.1-0.1-0.1-0.1-0.1l0,0c0,0.2,0.3,1,0.4,1.1
				c0.1,0.2,0.4,0.3,0.5,0.5c0.3,0.3,0.2,0.8,0.5,1.1c0,0.1,0.4,0.2,0.5,0.3c0.7,0.9,1.1,1.6,1.7,2.6C34.4,46.1,33.8,46.2,33.1,46.3
				 M25.9,41.3L25.9,41.3c-0.2,0-0.2,0.1-0.3,0.1c-0.1,0-0.2,0-0.3,0c0.3,0,0.5,0.2,0.8,0.2L25.9,41.3z M28.9,33.1
				c-0.3-0.1-0.8,0-1.2,0c-0.2,0-0.4,0.1-0.6,0.1c-0.1,0-0.3,0-0.4,0c0.1,1.6,0.3,3.2,0.5,4.8c0,0,0,0,0,0.1l1.4-0.2l0.4-0.1
				c0,0,0,0,0.1,0c0.2,0,0.3,0,0.5-0.1c0.6-0.3,0.5-1.7,0.5-2.2C29.9,35.1,29.5,33.2,28.9,33.1"/>
		</g>
		<g>
			<path class="st2" d="M44.1,31.3c-0.7,0.2-1.5,0.3-2.3,0.4c-0.3,0-0.5,0.1-0.8,0.1c0.3,2,0.4,4,0.7,6c0.2,1.7,0.6,3.3,0.8,5
				c0.1,0.8,0.2,1.6,0.2,2.4l-3,0.4c-0.1-0.2-0.2-0.4-0.2-0.6c0-0.2,0.1-0.3,0.1-0.5c-0.1,0-0.1-0.1-0.1-0.1c0-0.2,0-0.4,0-0.5
				l0,0.1c-0.1,0-0.1-0.2-0.2-0.2c-0.1-0.7-0.1-1.3-0.2-2c-0.2-1.5-0.3-3-0.5-4.5l0.3,0c0-0.1-0.1-0.2-0.2-0.2
				c-0.3-0.3-0.4-1-0.5-1.4c-0.1-0.6-0.1-1.2-0.1-1.9c0-0.3,0-0.6,0-0.9c0-0.1-0.1-0.2-0.1-0.3c0,0,0,0-0.1-0.1l0,0l0,0
				c-0.1-0.1-0.2-0.1-0.2-0.3c-0.1,0-0.3,0.1-0.4,0.1c-0.8,0.1-1.6,0.1-2.4,0.1l-0.3-2l0.3-0.2c3-0.4,5.9-0.7,8.9-1
				c0.1,0.3,0.2,0.7,0.2,1C44.1,30.6,44.1,30.9,44.1,31.3"/>
		</g>
		<g>
			<path class="st2" d="M65.8,42c-0.7,0.4-2.2,0.6-3,0.7c-1.5,0.2-3,0.3-4.4,0.4c-0.1-0.3-0.1-0.7-0.2-1c-0.1-1.1-0.2-2.1-0.3-3.2
				c0-0.5-0.1-1.1-0.1-1.6c0,0-0.2-0.4-0.2-0.5l0,0c0.1,0,0.1-0.2,0.1-0.4c0-0.1,0-0.1-0.1-0.2c-0.2-0.8-0.3-1.7-0.4-2.5
				c-0.3-2-0.5-4-0.7-6l0.3-0.2c0.2,0,0.4,0,0.6,0c1.1-0.1,2.2-0.4,3.2-0.5c0.8-0.1,1.6-0.2,2.4-0.1c0.4,0,0.7,0.3,1,0.4
				c1.7,0.7,2,2,2.2,3.5c0,0.2,0,0.3,0.1,0.5l-0.3,0.2c0,0,0,0,0,0.1c0,0.1,0.1,0.3,0.1,0.4c0.1,0.7-1.2,1.3-1.1,1.6
				c0,0.1,0,0.1,0.1,0.2c0,0,0,0.1,0,0.1c0.6,0.2,1.3,0.6,1.6,1.1c0.3,0.6,0.5,1.4,0.6,2C67.3,38.4,67.2,41.2,65.8,42 M62.3,29.1
				c-0.5,0-0.9-0.1-1.4,0c-0.7,0.1-0.7,0.2-1.2,0.5l0.5,3.7c0.4-0.1,0.9,0,1.3-0.1c1.4-0.2,1.7-1.1,1.6-2.1
				C62.9,30.4,62.6,29.7,62.3,29.1 M63,35.1c-0.1,0-0.2,0.1-0.3,0.1l-0.1,0l0-0.3l-0.2,0c-0.1,0-0.2,0-0.2,0c-0.3,0-0.6,0.1-1,0.1
				c-0.1,0-0.2,0-0.4,0c0,0.1-0.1,0.1-0.2,0.2c0,0-0.1,0-0.2,0c-0.1,0-0.1,0-0.1,0c0,0.2,0,0.4,0.1,0.6c0,0.3,0.1,0.5,0.1,0.7
				c-0.2,0.2-0.2,0.1-0.1,0.4c0,0.1,0,0.3,0.2,0.3l0,0l-0.1,0.4c0,0,0.1-0.1,0.1-0.1c0,0,0,0,0,0c0,0.1-0.1,0.2-0.1,0.3l0,0.3
				c0,0.3,0.1,0.5,0.2,0.7c0.1,0.6,0.2,1.2,0.3,1.7c0.4,0,0.7-0.1,1-0.1c0.7-0.1,1.4-0.2,1.7-0.8c0.3-0.5,0.2-1.8,0.1-2.4
				C64,37.2,63.6,35.1,63,35.1"/>
		</g>
		<g>
			<path class="st2" d="M78.7,40.6c-1.1,0.1-2.3,0.3-3.4,0.4l-1,0.1c-1.3,0.2-2.6,0.3-3.9,0.3c-0.1-0.9-0.3-1.9-0.4-2.8
				c-0.2-1.7-0.2-3.4-0.4-5.1c-0.1-0.5-0.2-1-0.3-1.5L69,32l-0.8-5.6c0.4-0.1,0.8-0.3,1.2-0.4l-0.1,0l0.3,0l-0.1,0l6.5-0.8
				c0,0.3,0.1,0.5,0.1,0.8c0,0.1,0,0.3,0.1,0.4c0,0,0,0,0,0c0.1,0,0.2,0.1,0.2,0.2c0,0,0,0,0,0c0,0-0.1,0-0.1,0
				c0.1,0.1,0.1,0.3,0.1,0.4c0,0,0,0.2,0,0.2c-0.3,0.1-2.1,0.4-2.6,0.5c-0.4,0.1-0.8,0.1-1.2,0.1c-0.2,0-0.4,0-0.4,0.1
				c-0.2,0.2-0.1,1.5-0.1,1.8c0,0.4,0,0.8,0.1,1.2c0,0.3,0.1,0.6,0.2,0.9c1.1-0.1,2.3,0,3.4-0.2l0.2,1.8c-1.1,0.3-2.2,0.5-3.4,0.7
				c0,1,0.1,2,0.2,3c0.1,0.6,0.2,1.3,0.3,1.9c0.2,0,0.2,0.2,0.4,0.2c0.3,0.1,1.7-0.1,2-0.1c0.8-0.1,1.6-0.2,2.4-0.3
				c0.2,0,0.4,0,0.6,0C78.7,39.3,78.7,40,78.7,40.6"/>
		</g>
		<g>
			<path class="st2" d="M89,39.3l-7.9,1c-0.5-3.5-1.1-6.9-1.6-10.4l-0.4-2.6c0,0,0,0,0,0c0-0.1,0-0.3,0.1-0.4l-0.4-1.6
				c0,0,0.1-0.1,0.1-0.1c0,0,0-0.1,0-0.1c0,0,0-0.1,0-0.1c0.2-0.1,0.5-0.1,0.8-0.2c0.7-0.1,1.5-0.1,2.2-0.1c0.4,2.6,0.6,5.3,0.9,7.9
				c0.2,1.8,0.5,3.6,1,5.3c0.1,0,0.3,0,0.4-0.1c0.6-0.1,1.1-0.2,1.7-0.2c0.9-0.1,1.7-0.2,2.6-0.2c0,0,0-0.1,0-0.1c0,0,0-0.1,0-0.1
				c0.1,0,0.2,0.1,0.3,0.1C89,38,89,38.7,89,39.3"/>
		</g>
		<g>
			<path class="st2" d="M99,38.1l-7.9,1c-0.5-3.5-1.1-6.9-1.6-10.4L89.2,26c0,0,0,0,0,0c0-0.1,0-0.3,0.1-0.4L88.9,24
				c0,0,0.1-0.1,0.1-0.1c0,0,0-0.1,0-0.1c0,0,0-0.1,0-0.1c0.2-0.1,0.5-0.1,0.8-0.2c0.7-0.1,1.5-0.1,2.2-0.1c0.4,2.6,0.6,5.3,0.9,7.9
				c0.2,1.8,0.5,3.6,1,5.3c0.1,0,0.3,0,0.4,0c0.6-0.1,1.1-0.2,1.7-0.2c0.9-0.1,1.7-0.2,2.6-0.2c0,0,0-0.1,0-0.1c0,0,0-0.1,0-0.1
				c0.1,0,0.2,0.1,0.3,0.1C99,36.8,99,37.4,99,38.1"/>
		</g>
		<g>
			<path class="st2" d="M109.9,35.1c-0.2,0.7-1.3,1.6-2,1.8c-0.5,0.2-1.1,0.4-1.7,0.4c-0.7,0.1-1.3,0.1-2,0c-0.1,0-0.1,0-0.2,0
				c-0.1,0-0.3,0.1-0.4,0.1c-0.5,0.1-0.7-0.5-1-0.5c-0.1,0-0.2,0.1-0.3,0.1c-0.3,0-0.1-0.3-0.3-0.4c-0.1-0.1-0.3,0-0.5-0.1
				c-0.7-0.4-1.2-2.9-1.4-4.5c-0.1-0.4-0.1-0.7-0.1-0.9c0-0.3-0.1-0.6-0.1-0.8l0,0c0,0,0-0.1,0-0.1c0.1-0.3,0-1.1,0-1.5
				c0,0,0-0.1,0-0.1l0-0.3c-0.1,0-0.1-0.1-0.1-0.1c0-0.2,0-0.4,0-0.5l0,0.1c0,0-0.2-0.2-0.2-0.2c-0.1-0.7-0.3-3.8,0.2-4.3
				c0.1-0.1,0.4-0.1,0.5-0.2c0.1-0.1,0-0.3,0.1-0.4c0.5-0.6,2.3-1.2,3.1-1.3c1.3-0.2,4,0.2,4.8,1.1c0.6,0.7,1.2,4.7,1.3,5.7
				C109.6,29.4,110.2,34.1,109.9,35.1 M105.2,23.8c-0.4-0.2-1-0.2-1.4-0.2c-0.7,0.1-1.2,0.5-1.4,1c-0.2,0.5,0.4,4.7,0.4,5.4
				c0.1,0.7,0.6,4.4,0.9,4.8c0.3,0.4,1.2,0.6,1.7,0.5c0.2,0,0.4-0.1,0.5-0.1l0-0.1c0.3-0.2,0.6-0.4,0.7-0.6c0.3-0.5-0.2-4.4-0.3-5.1
				C106.4,28.7,105.7,24.1,105.2,23.8"/>
		</g>
	</g>
</g>
</svg>
