<?xml version="1.0" encoding="utf-8"?>
<!-- Generator: Adobe Illustrator 22.0.1, SVG Export Plug-In . SVG Version: 6.00 Build 0)  -->
<svg version="1.1" id="Layer_1" xmlns="http://www.w3.org/2000/svg" xmlns:xlink="http://www.w3.org/1999/xlink" x="0px" y="0px"
	 viewBox="0 0 140 92" style="enable-background:new 0 0 140 92;" xml:space="preserve">
<style type="text/css">
	.st0{fill:#FFFFFF;}
</style>
<g>
	<g>
		<path class="st0" d="M29.3,49.4v-3.6h-3v3.6c0,3.2-1.6,6-5,6s-5.1-3-5.1-6.1V24c0-3.8,2.1-6.1,5.1-6.1c3.3,0,5,1.9,5,6.1v3.8h3V24
			c0-5.6-3.2-9-8.1-9c-5,0-8.2,3.6-8.2,9v25.2c0,5,3.1,9,8.3,9C26.8,58.3,29.3,53.8,29.3,49.4 M19.6,54.8c0.5,0.2,1,0.3,1.7,0.3
			c3.2,0,4.7-2.7,4.7-5.7v-3.9h3.6v0.4l2.8,2.9v3.8c0,4.4-2.6,9-8.1,9c-2.4,0-4.4-0.9-5.8-2.4l-1.7-1.7c-2.6-1.6-4-4.7-4-8.1V24
			c0-5.6,3.3-9.3,8.5-9.3c3,0,5.4,1.3,6.9,3.6l1.9,1.8c1.6,1.6,2.4,3.9,2.4,6.9v4h-3.2l-2.8-2.9H26V24c0-1.1-0.1-2.1-0.4-2.9
			c-0.4-0.1-0.9-0.1-1.4-0.1c-2.9,0-5,2.2-5,6v25.3C19.3,53.2,19.3,54.1,19.6,54.8"/>
		<path class="st0" d="M29.4,30.5h2.5V27c0-2.8-0.8-5-2.3-6.6l-0.4-0.4c0.4,1.2,0.6,2.5,0.6,3.9v4.4h-2.5L29.4,30.5z M21.3,18.4
			c-2.8,0-4.6,2.2-4.6,5.6v25.3c0,1.9,0.7,3.9,2.3,4.9c-0.1-0.7-0.2-1.4-0.2-1.9V27.1c0-3.9,2.2-6.5,5.5-6.5c0.3,0,0.6,0,0.9,0.1
			C24.5,19.1,23.2,18.4,21.3,18.4 M21.2,15.5c-4.7,0-7.7,3.4-7.7,8.5v25.2c0,5,3.2,8.5,7.8,8.5c5.2,0,7.5-4.2,7.5-8.4v-3.1h-2.1v3.1
			c0,4-2.1,6.5-5.4,6.5c-3.7,0-5.6-3.3-5.6-6.6V24c0-4,2.3-6.6,5.6-6.6c3.7,0,5.5,2.2,5.5,6.6v3.3h2V24C28.8,18.7,26,15.5,21.2,15.5
			 M18.4,58.4l0.4,0.4c1.4,1.5,3.3,2.2,5.5,2.2c5.2,0,7.6-4.4,7.6-8.5v-3.6l-2.1-2.2v2.7c0,4.5-2.7,9.4-8.5,9.4
			C20.3,58.8,19.3,58.7,18.4,58.4 M24.3,62c-2.4,0-4.6-0.9-6.2-2.5l-1.7-1.7c-2.6-1.7-4.2-4.9-4.2-8.5V24c0-6,3.5-9.8,9-9.8
			c3.1,0,5.7,1.3,7.3,3.8l1.8,1.8c1.7,1.7,2.6,4.2,2.6,7.3v4.5H29l-2.8-2.9h-0.6V24c0-0.9-0.1-1.7-0.3-2.4c-0.3,0-0.7-0.1-1-0.1
			c-2.7,0-4.5,2.2-4.5,5.5v25.3c0,0.6,0,1.4,0.2,2c0.4,0.1,0.8,0.2,1.3,0.2c3.1,0,4.2-2.7,4.2-5.2V45h4.6v0.7l2.8,2.9v4
			C32.9,57,30.2,62,24.3,62"/>
	</g>
	<path class="st0" d="M54.2,15.4v28.8h-10V15.4H41v42.5h3.2V47h10v10.9h3V15.4H54.2z M57.5,15.1v0.4l2.8,2.9V61h-3.3l-2.8-2.9h-0.4
		v-8h-6.6V61h-3.4l-2.8-2.9h-0.4V15.1h3.8v0.4l2.8,2.9v25.5h6.6V15.1H57.5z"/>
	<path class="st0" d="M44.7,43.7h2.1V18.5l-2.1-2.2V43.7z M54.7,57.4h2.1V15.9h-2.1v28.8h-11V15.9h-2.2v41.5h2.2V46.5h11V57.4z
		 M44.1,60.5h2.7V49.7h6.9v-2.2h-9v10.9h-2.7L44.1,60.5z M57.3,60.5h2.6v-42l-2.1-2.2v42h-2.6L57.3,60.5z M60.8,61.6h-4L54,58.7
		h-0.6v-8h-5.6v10.9h-4.1l-2.8-2.9h-0.6V14.6H45v0.7l2.8,2.9v25.3h5.6V14.6H58v0.7l2.8,2.9V61.6z"/>
	<path class="st0" d="M72.7,15.4h-3.2v42.5h3.2V15.4z M69.6,58.2h-0.4V15.1H73v0.4l2.8,2.9V61h-3.4L69.6,58.2z"/>
	<path class="st0" d="M70,57.4h2.2V15.9H70V57.4z M72.6,60.5h2.7v-42l-2.1-2.2v42h-2.7L72.6,60.5z M76.3,61.6h-4.1l-2.8-2.9h-0.6
		V14.6h4.7v0.7l2.8,2.9V61.6z"/>
	<path class="st0" d="M3.1,38.1c0,0.9-0.7,1.6-1.5,1.6C0.7,39.7,0,39,0,38.1c0-0.9,0.7-1.6,1.5-1.6C2.4,36.5,3.1,37.2,3.1,38.1"/>
	<path class="st0" d="M140,38.1c0,0.9-0.7,1.6-1.5,1.6c-0.9,0-1.5-0.7-1.5-1.6c0-0.9,0.7-1.6,1.5-1.6C139.3,36.5,140,37.2,140,38.1"
		/>
	<path class="st0" d="M84.6,70.8c0,0,0.1-0.1,0.1-0.1c-0.2-0.2-0.2-0.3,0-0.6c0-0.2-0.1-0.4,0-0.7c-0.1,0-0.2,0.1-0.2,0.1
		c-0.1-0.1-0.1-0.3-0.1-0.3c-0.1,0-0.2-0.1-0.2-0.1c0,0,0,0-0.1,0.1c-0.1,0-0.2,0-0.3-0.1c-0.2-0.1-0.4-0.3-0.6-0.4
		c-0.2-0.1-0.5-0.2-0.7-0.3c0,0,0,0.1,0,0.1c-0.3,0-0.6,0.1-0.8-0.2c0,0-0.1,0.1-0.1,0.1c-0.3,0-0.6,0-0.9,0
		c-0.3,0.1-0.7,0.1-1.1,0.2c-1,0.2-1.8,0.7-2.4,1.5c-0.3,0.4-0.6,0.9-0.9,1.3c-0.2,0.3-0.5,0.6-0.8,0.8c-0.3,0.1-0.5,0.3-0.8,0.4
		c-0.5,0.2-0.9,0.2-1.4,0.1c-0.9-0.3-1.7-0.5-2.6-0.6c-0.6-0.1-1.3-0.2-1.9-0.3c-0.5-0.1-0.9-0.3-1.3-0.7c-0.1-0.2-0.3-0.3-0.5-0.5
		c-0.3-0.4-0.7-0.7-1.2-0.8c-0.3-0.1-0.6-0.1-0.8-0.1c-0.3-0.2-0.5-0.4-0.8-0.6c-0.1-0.1-0.2-0.1-0.2-0.1c-0.1,0-0.2-0.1-0.3-0.2
		c-0.2-0.2-0.4-0.4-0.6-0.6c-0.4-0.4-0.9-0.5-1.4-0.6c0,0-0.1,0-0.1,0c-0.2,0-0.4,0.1-0.5,0.1c-0.2,0-0.4,0.2-0.4,0.3
		c-0.1,0.2-0.1,0.3-0.1,0.5c0,0.1,0,0.2,0,0.4c0,0.4-0.1,0.8,0,1.2c0,0.2,0.1,0.4,0.1,0.6c-0.4,0.2-0.3,0.5-0.3,0.9
		c-0.3,0.2-0.4,0.5-0.1,0.9c-0.1,0.4,0,0.7,0.1,1.1c0,0-0.1,0-0.1,0c-0.2,0.1-0.3,0.1-0.3,0.4c0,0.2,0,0.3,0,0.5
		c0,0.4,0.2,0.7,0.5,0.9c0,0,0.1,0,0.1,0.1c0,0,0,0.1,0,0.1c0,0.7,0.3,1.2,0.9,1.5c0.1,0,0.1,0.1,0.2,0.1c-0.1,0.2-0.2,0.5-0.2,0.8
		c0,0.3,0,0.5,0.2,0.8c0.2,0.2,0.3,0.4,0.5,0.6c-0.1,0-0.1,0.1-0.2,0.2c0,0.1,0,0.2,0.1,0.3c0,0.1,0,0.2-0.1,0.3
		c0,0-0.1,0.1-0.1,0.1c0.1,0,0.1,0,0.1,0.1c-0.1,0.1-0.1,0.1-0.2,0.2c0.1,0,0.2,0.1,0.2,0.1c-0.1,0.1-0.2,0.1-0.3,0.2
		c0.1,0,0.1,0.1,0.2,0.1c0,0.1,0,0.1,0,0.4c0,0.1-0.1,0.1-0.1,0.1c0,0.1,0,0.2,0.1,0.2c0.1,0,0.2,0,0.2,0c0.2,0.3,0.4,0.5,0.5,0.7
		c0,0.1-0.1,0.3,0,0.5c0.1,0,0.1,0.1,0.2,0.1c0,0.1,0.1,0.2,0.1,0.2c0.1,0,0.2,0.1,0.3,0.1c-0.1,0.1-0.1,0.2-0.2,0.3
		c0,0.1,0.1,0.1,0.2,0.1c0,0,0.1,0,0.1,0.1c0.1,0.1,0.1,0.1,0.2,0c0.3-0.1,0.4,0,0.5,0.3c0,0.2,0,0.4,0,0.5c0,0.1,0,0.2,0.1,0.3
		c0.1,0,0.3-0.1,0.4-0.1c0,0.2-0.1,0.3,0.1,0.4c0.1,0,0.1,0,0.2,0c0.1,0,0.2,0,0.4,0.1c0.1,0,0.2,0.2,0.3,0.3
		c0.1,0.1,0.1,0.2,0.2,0.3c0.1,0.1,0.3,0.2,0.4,0.3c0.1,0.1,0,0.2,0.1,0.3c0.1,0.1,0.2-0.1,0.3-0.1c0.2,0.2,0.2,0.2,0.4,0.2
		c0.2,0.2,0.3,0.3,0.5,0.4c0.2,0.2,0.3,0.3,0.6,0.3c0,0,0.1,0.1,0.1,0.1c0.1,0.1,0.1,0.1,0.2,0.2c0.2,0.1,0.3,0.1,0.4-0.1
		c0,0,0,0,0,0c0.1,0.1,0.1,0.1,0.2,0.3c0.2,0.6,0.2,1.2,0.1,1.9c0,0.3-0.1,0.5-0.1,0.8c-0.3,0.1-0.7,0.1-0.8,0.5
		c0.1,0.1,0.2,0.1,0.2,0.1c0.2-0.1,0.4,0,0.6,0c0.1,0.1,0.2,0.2,0.4,0.2c0.2,0,0.4,0.1,0.5,0.2c0.1,0.1,0.2,0.1,0.4,0.1
		c0.3,0,0.6,0,0.9,0c0.2,0,0.4,0,0.6,0.1c0,0,0.1,0,0.1,0c0.3,0.1,0.5,0.2,0.6,0.4c0,0.1,0.1,0.1,0.2,0.1c0.1-0.1,0.1-0.3,0.1-0.4
		c0-0.1-0.2-0.2-0.2-0.4c0.3,0,0.5-0.1,0.8,0c0.2,0.1,0.4,0.2,0.6,0.5c0.2-0.2,0.2-0.3,0-0.5c-0.1-0.1-0.1-0.1-0.2-0.2
		c0.4,0.1,0.7,0.2,0.9,0.5c0.1,0.1,0.1,0.2,0.3,0.3c0.2-0.3,0.1-0.5-0.1-0.9c0-0.3,0-0.3-0.5-0.7c0.1,0,0.2,0,0.3,0.1
		c0.2,0,0.2,0.3,0.3,0.4c0.2,0,0.3-0.1,0.2-0.3c0-0.1-0.1-0.1-0.1-0.2c-0.2-0.2-0.4-0.3-0.6-0.4c-0.3,0-0.6,0-0.9,0.1
		c-0.4,0.1-0.7,0.1-1.1,0.1c-0.1,0-0.1,0-0.2,0c0-0.1,0-0.2,0-0.2c0-0.3,0-0.6-0.1-0.9c-0.1-0.4-0.2-0.8-0.2-1.3
		c0-0.1,0-0.2,0.1-0.3c0-0.1-0.1-0.2-0.1-0.4c0.1,0,0.1,0,0.2,0.1c-0.1-0.2-0.2-0.5-0.2-0.7c0.1,0.1,0.2,0.2,0.3,0.4
		c0.1,0.1,0.1,0.3,0.3,0.3c0.1,0,0.1-0.1,0.2-0.1c-0.1-0.2-0.1-0.3-0.2-0.5c-0.1-0.2-0.2-0.3-0.2-0.5c0.1,0.2,0.2,0.3,0.3,0.4
		c0.1,0.1,0.2,0.2,0.3,0.3c0,0,0,0,0.1,0c0-0.1,0-0.1,0-0.2c0.1,0,0.1,0,0.2,0.1c0,0,0-0.1,0.1-0.1c0.1,0,0.1,0.1,0.2,0.1
		c0-0.1,0-0.1,0-0.2c0.1,0.1,0.2,0.1,0.3,0.2c0,0,0,0,0,0c-0.1-0.2-0.3-0.4-0.4-0.6c0,0,0.1-0.1,0.1-0.1c0.2,0,0.3,0,0.5-0.1
		c0.6-0.2,1.2-0.4,1.8-0.7c0.4-0.1,0.7-0.3,1-0.6c0.1-0.1,0.2-0.1,0.4-0.1c0.5-0.1,1-0.2,1.4-0.4c1-0.5,1.6-1.2,2-2.2
		c0.3-0.6,0.5-1.3,0.7-1.9c0.3-0.7,0.6-1.4,1.1-2c0.1-0.1,0.1-0.2,0.2-0.3c0.2-0.3,0.3-0.6,0.4-1c0-0.4,0-0.9,0.1-1.3
		c0-0.6,0.1-1.2,0.3-1.8c0.1-0.2,0.1-0.4,0.1-0.6c0-0.2,0.1-0.3,0.3-0.3c0.3,0,0.4-0.2,0.6-0.4c0.2-0.3,0.5-0.4,0.8-0.6
		c0.4,0.1,0.8,0.2,1.2,0.3C85.4,71.3,85.1,71,84.6,70.8z M70.4,89.6c0,0.1,0,0.2-0.1,0.4c-0.4-0.7-0.7-1.4-0.6-2.3
		c0.1,0,0.1,0.1,0.1,0.1c0-0.1,0-0.3,0-0.4c0,0,0,0,0,0c0,0.1,0.1,0.2,0.2,0.3c0-0.1,0-0.2,0-0.3c0,0,0,0,0,0c0,0,0,0,0,0
		c0,0,0,0,0.1,0.1c-0.1-0.3-0.1-0.6-0.2-0.9c0,0,0,0,0,0c0,0.1,0.1,0.2,0.1,0.3c0.1,0.4,0.2,0.8,0.3,1.2
		C70.4,88.7,70.4,89.1,70.4,89.6z M82.6,70.6c-0.1,0-0.3-0.2-0.3-0.3c0-0.1,0.1-0.2,0.2-0.2c0.1,0,0.3,0.2,0.3,0.3
		C82.8,70.5,82.7,70.6,82.6,70.6z"/>
	<polygon class="st0" points="27.5,4.2 50.5,4.6 50.5,3.8 	"/>
	<polygon class="st0" points="92,4.6 115,4.2 92,3.8 	"/>
	<g>
		<path class="st0" d="M65.5,1.8H63v7.4h-1.8V1.8h-2.5V0h6.8V1.8z"/>
		<path class="st0" d="M74.7,0v9.2h-1.8V5.5h-3.6v3.7h-1.8V0h1.8v3.7h3.6V0H74.7z"/>
		<path class="st0" d="M79.3,1.8v1.9h3v1.8h-3v1.9h4v1.8h-5.9V0h5.9v1.8H79.3z"/>
	</g>
	<path class="st0" d="M100.4,49.4v-3.6h-3v3.6c0,3.2-1.6,6-5,6c-3.4,0-5.1-3-5.1-6.1V24c0-3.8,2.1-6.1,5.1-6.1c3.3,0,5,1.9,5,6.1
		v3.8h3V24c0-5.6-3.2-9-8.1-9c-5,0-8.2,3.6-8.2,9v25.2c0,5,3.1,9,8.3,9C97.9,58.3,100.4,53.8,100.4,49.4 M90.7,54.8
		c0.5,0.2,1,0.3,1.7,0.3c3.2,0,4.7-2.7,4.7-5.7v-3.9h3.6v0.4l2.8,2.9v3.8c0,4.4-2.6,9-8.1,9c-2.4,0-4.4-0.9-5.9-2.4l-1.7-1.7
		c-2.6-1.6-4-4.7-4-8.1V24c0-5.6,3.3-9.3,8.5-9.3c3,0,5.4,1.3,6.9,3.6l1.8,1.8c1.6,1.6,2.4,3.9,2.4,6.9v4h-3.2l-2.8-2.9h-0.4V24
		c0-1.1-0.1-2.1-0.4-2.9c-0.4-0.1-0.9-0.1-1.4-0.1c-2.9,0-5,2.2-5,6v25.3C90.4,53.2,90.4,54.1,90.7,54.8"/>
	<path class="st0" d="M100.5,30.5h2.5V27c0-2.8-0.8-5-2.3-6.6l-0.4-0.4c0.4,1.2,0.6,2.5,0.6,3.9v4.4h-2.5L100.5,30.5z M92.4,18.4
		c-2.8,0-4.6,2.2-4.6,5.6v25.3c0,1.9,0.7,3.9,2.3,4.9c-0.1-0.7-0.2-1.4-0.2-1.9V27.1c0-3.9,2.2-6.5,5.5-6.5c0.3,0,0.6,0,0.9,0.1
		C95.6,19.1,94.3,18.4,92.4,18.4 M92.3,15.5c-4.7,0-7.7,3.4-7.7,8.5v25.2c0,5,3.2,8.5,7.8,8.5c5.2,0,7.5-4.2,7.5-8.4v-3.1h-2.1v3.1
		c0,4-2.1,6.5-5.4,6.5c-3.7,0-5.6-3.3-5.6-6.6V24c0-4,2.3-6.6,5.6-6.6c3.7,0,5.5,2.2,5.5,6.6v3.3h2V24
		C99.9,18.7,97.1,15.5,92.3,15.5 M89.5,58.4l0.4,0.4c1.4,1.5,3.3,2.2,5.5,2.2c5.2,0,7.6-4.4,7.6-8.5v-3.6l-2.1-2.2v2.7
		c0,4.5-2.7,9.4-8.5,9.4C91.4,58.8,90.4,58.7,89.5,58.4 M95.4,62c-2.4,0-4.6-0.9-6.2-2.5l-1.7-1.7c-2.6-1.7-4.2-4.9-4.2-8.5V24
		c0-6,3.5-9.8,9-9.8c3.1,0,5.7,1.3,7.2,3.8l1.8,1.8c1.7,1.7,2.6,4.2,2.6,7.3v4.5h-3.9l-2.8-2.9h-0.6V24c0-0.9-0.1-1.7-0.3-2.4
		c-0.3,0-0.7-0.1-1-0.1c-2.7,0-4.5,2.2-4.5,5.5v25.3c0,0.6,0,1.4,0.2,2c0.4,0.1,0.8,0.2,1.3,0.2c3.1,0,4.2-2.7,4.2-5.2V45h4.6v0.7
		l2.8,2.9v4C104,57,101.3,62,95.4,62"/>
	<path class="st0" d="M129.5,15.4h-3.4l-8.2,19.2l-2.8,7V15.4H112v42.5h3.2V47.7l1.1-2.2l9.7,12.4h3.9c-8.4-11-10.3-13.4-11.9-15.6
		L129.5,15.4z M129.8,15.5l2.9,2.9l-11.6,27c1,1.3,2.1,2.7,12.1,15.7h-4.2l-2.8-2.9h-0.2l-6.9-8.8l-0.7,1.4V61h-3.4l-2.8-2.9h-0.4
		V15.1h3.8v0.4l2.8,2.9v14.7l7.6-18h4.1L129.8,15.5z"/>
	<path class="st0" d="M115.6,16.4v22.7l2.1-5.3V18.5L115.6,16.4z M118.5,42.2c0.6,0.8,1.2,1.6,2.1,2.8l11.5-26.6l-2.3-2.3
		L118.5,42.2z M126.2,57.4h2.7c-3-3.9-5.1-6.7-6.7-8.7c-2.6-3.4-3.6-4.7-4.6-6.1l-0.2-0.2l0.1-0.3l11.3-26.2h-2.3l-8.1,18.9
		l-3.8,9.4V15.9h-2.2v41.5h2.2v-9.8l1.5-3L126.2,57.4z M115,60.5h2.7v-9.9l0.7-1.5l-2.1-2.7l-0.7,1.4v10.6h-2.7L115,60.5z
		 M129.1,60.5h3c-0.6-0.8-1.1-1.5-1.6-2.2H127L129.1,60.5z M134.1,61.6h-5.4l-2.8-2.9h-0.2l-6.6-8.4l-0.3,0.6v10.6h-4.1l-2.8-2.9
		h-0.6V14.6h4.7v0.7l2.8,2.9v12.5l6.8-16h5.2l-0.4,0.8l2.9,2.8l-11.7,27.1c0.4,0.5,0.8,1.1,1.7,2.3c1.5,2,4.3,5.6,10.1,13.2
		L134.1,61.6z"/>
</g>
</svg>
