{
  "overall_star_rating": 5,
  "ratings": {
    "data": [
      {
        "created_time": "2018-01-28T03:09:52+0000",
        "reviewer": {
          "name": "Jacqueline Hancher",
          "id": "10203954342719781"
        },
        "rating": 5
      },
      {
        "created_time": "2018-01-25T15:40:16+0000",
        "reviewer": {
          "name": "Kodjovi Kush",
          "id": "10205796999936476"
        },
        "rating": 5,
        "review_text": "Balabam what a Bam Bam. Fantastic atmosphere on and off stage. Great staff members, good sound. Original venue for original music and people. Love up Balabam."
      },
      {
        "created_time": "2018-01-16T12:48:27+0000",
        "reviewer": {
          "name": "Loukia Ioannidou",
          "id": "10203492906019580"
        },
        "rating": 5
      },
      {
        "created_time": "2018-01-14T17:40:30+0000",
        "reviewer": {
          "name": "Salvatore Giacalone",
          "id": "10205290744381622"
        },
        "rating": 5,
        "review_text": "Great place! Really recommended"
      },
      {
        "created_time": "2018-01-12T17:59:33+0000",
        "reviewer": {
          "name": "Claudia Robinson",
          "id": "10152589373954527"
        },
        "rating": 5,
        "review_text": "Great venue!! Completely love it!! \n\nCan\u2019t wait to come back again \ufffd"
      },
      {
        "created_time": "2018-01-08T09:38:51+0000",
        "reviewer": {
          "name": "Jenny Preka",
          "id": "10153159880456772"
        },
        "rating": 5
      },
      {
        "created_time": "2018-01-05T19:22:00+0000",
        "reviewer": {
          "name": "Lauren Taylor",
          "id": "10152411976612540"
        },
        "rating": 5,
        "review_text": "Amazing stage, sound, lighting, vibes and OMG the FOOD is AWESOME!!!"
      },
      {
        "created_time": "2017-12-29T13:57:46+0000",
        "reviewer": {
          "name": "G\u00e1bor Hal\u00e1sz",
          "id": "922436634456843"
        },
        "rating": 5
      },
      {
        "created_time": "2017-12-16T16:19:31+0000",
        "reviewer": {
          "name": "Viviana Rohmer Litzmann",
          "id": "10153410156968919"
        },
        "rating": 5
      },
      {
        "created_time": "2017-12-10T13:21:12+0000",
        "reviewer": {
          "name": "Nicola Kingsley",
          "id": "10204551374402007"
        },
        "rating": 5,
        "review_text": "Amazing music venue with truly lovely staff!"
      },
      {
        "created_time": "2017-12-01T16:00:42+0000",
        "reviewer": {
          "name": "Lorrianne Clarke",
          "id": "10155061072450451"
        },
        "rating": 5,
        "review_text": "With its walls a shimmering speckle of gold and blue, it feels like a mystical portal has opened up and is leaking endlessly mesmerising music from incredibly talented multi-national musicians. Absolute magick. The beer ain't bad either."
      },
      {
        "created_time": "2017-11-29T20:52:43+0000",
        "reviewer": {
          "name": "Jo Hunter",
          "id": "10152437513927407"
        },
        "rating": 5
      },
      {
        "created_time": "2017-11-26T22:29:40+0000",
        "reviewer": {
          "name": "Katarina Grbi\u0107",
          "id": "10204844251099319"
        },
        "rating": 5
      },
      {
        "created_time": "2017-11-25T16:50:27+0000",
        "reviewer": {
          "name": "James Johnston",
          "id": "10152329991962035"
        },
        "rating": 5
      },
      {
        "created_time": "2017-11-25T09:35:08+0000",
        "reviewer": {
          "name": "Sue Gedrych",
          "id": "166951660743891"
        },
        "rating": 5,
        "review_text": "Had great night at Balabam. Really cool spot, nice space for music, run by very friendly team (thanks for the mojitos) and fantastic sounds from Maddaddam and Ludi\u2019s Eye."
      },
      {
        "created_time": "2017-11-20T01:43:48+0000",
        "reviewer": {
          "name": "Tansay Omar",
          "id": "10152990670551913"
        },
        "rating": 5
      },
      {
        "created_time": "2017-11-19T21:40:13+0000",
        "reviewer": {
          "name": "Sanya Torkmorad-Jozavi",
          "id": "10156081996745643"
        },
        "rating": 5
      },
      {
        "created_time": "2017-11-19T20:53:06+0000",
        "reviewer": {
          "name": "Mustafa Gur",
          "id": "10153786249400752"
        },
        "rating": 5
      },
      {
        "created_time": "2017-11-19T16:43:33+0000",
        "reviewer": {
          "name": "Adrien Besombes",
          "id": "10152570086728551"
        },
        "rating": 5
      },
      {
        "created_time": "2017-11-19T13:38:46+0000",
        "reviewer": {
          "name": "Ollie Maddrell",
          "id": "10152825762059747"
        },
        "rating": 5,
        "review_text": "Yes yes & yes.\n\nGreat live music, brilliant collection of beers and the staff here were all lovely. \n\nWould absolutely recommend."
      },
      {
        "created_time": "2017-11-10T13:48:19+0000",
        "reviewer": {
          "name": "Cengiz Nht",
          "id": "10206620238683336"
        },
        "rating": 5
      },
      {
        "created_time": "2017-11-10T12:22:41+0000",
        "reviewer": {
          "name": "Serhat Yldz",
          "id": "10155526210852240"
        },
        "rating": 5
      },
      {
        "created_time": "2017-11-10T12:20:20+0000",
        "reviewer": {
          "name": "Jomy Jomert",
          "id": "10152401182474585"
        },
        "rating": 5
      },
      {
        "created_time": "2017-11-08T20:17:10+0000",
        "reviewer": {
          "name": "Melody Bourdon",
          "id": "10203376130551429"
        },
        "rating": 5
      },
      {
        "created_time": "2017-10-04T10:41:31+0000",
        "reviewer": {
          "name": "Anna K Dance",
          "id": "732504843504776"
        },
        "rating": 5,
        "review_text": "Wonderful venue, vibe and music. Couldn't ask for a better night out!"
      },
      {
        "created_time": "2017-10-03T08:17:09+0000",
        "reviewer": {
          "name": "Liam Casey Major",
          "id": "834455934354"
        },
        "rating": 5
      },
      {
        "created_time": "2017-09-28T18:29:43+0000",
        "reviewer": {
          "name": "Koray Vurucular",
          "id": "1619947894755150"
        },
        "rating": 5
      },
      {
        "created_time": "2017-09-23T15:20:34+0000",
        "reviewer": {
          "name": "Charlotte Algar",
          "id": "10204408438343465"
        },
        "rating": 5
      },
      {
        "created_time": "2017-09-23T14:42:59+0000",
        "reviewer": {
          "name": "Victor Marichal",
          "id": "10205619727951649"
        },
        "rating": 5,
        "review_text": "So glad I live so close to Balabam! An amazing venue with a beautiful live music stage and truly lovely staff, can't recommend it enough."
      },
      {
        "created_time": "2017-09-20T10:21:06+0000",
        "reviewer": {
          "name": "Al Maranca",
          "id": "10153391146079409"
        },
        "rating": 5,
        "review_text": "A very special place, created by courageous people with a lot of experience and dedication in running live music venues. A new shining star in North London and \neverybody is loving it! Long life to Balabam*"
      },
      {
        "created_time": "2017-09-17T20:22:21+0000",
        "reviewer": {
          "name": "Elena Baylis",
          "id": "10152935076237318"
        },
        "rating": 5
      },
      {
        "created_time": "2017-09-16T01:27:07+0000",
        "reviewer": {
          "name": "Lin Ko",
          "id": "1556279274468281"
        },
        "rating": 5,
        "review_text": "Without a doubt the best place to hang around in the area to enjoy good food, real music & meet extraordinary people!!! \ud83c\udf77\ud83c\udfb6\ud83d\ude3b"
      },
      {
        "created_time": "2017-09-15T14:14:10+0000",
        "reviewer": {
          "name": "Lonan Jenkins",
          "id": "10152795982043766"
        },
        "rating": 5,
        "review_text": "So proud of everyone who has got this place going. An exciting new venue with great music, friendly staff and banging beer. X"
      },
      {
        "created_time": "2017-09-15T10:40:56+0000",
        "reviewer": {
          "name": "Emrah Denizhan",
          "id": "10152905946186843"
        },
        "rating": 5
      },
      {
        "created_time": "2017-09-15T10:30:02+0000",
        "reviewer": {
          "name": "Rosita Coosita",
          "id": "10152000099791650"
        },
        "rating": 5,
        "review_text": "My new fav place in London!!... And it's local!\ufffd\ufffd"
      },
      {
        "created_time": "2017-09-14T22:41:17+0000",
        "reviewer": {
          "name": "Timmy Creedy",
          "id": "10154454627305367"
        },
        "rating": 5,
        "review_text": "Great live music venue! It's nice this has opened when so many local ice music venues are closing, keep up the good work guys! \ufffd"
      },
      {
        "created_time": "2017-09-14T17:48:08+0000",
        "reviewer": {
          "name": "Kris Genijn",
          "id": "10152785894703824"
        },
        "rating": 5,
        "review_text": "Balabam perches perfectly on the line between beautiful music, drinks, art and general good vibes in an international atmosphere."
      },
      {
        "created_time": "2017-09-14T01:55:16+0000",
        "reviewer": {
          "name": "Georgia Ptohides Black",
          "id": "10152841830450631"
        },
        "rating": 5
      },
      {
        "created_time": "2017-09-13T15:06:14+0000",
        "reviewer": {
          "name": "Quto Yuce",
          "id": "10152924094583544"
        },
        "rating": 5
      },
      {
        "created_time": "2017-09-13T10:23:24+0000",
        "reviewer": {
          "name": "Tatiana Escorsell",
          "id": "10204743021191279"
        },
        "rating": 5
      },
      {
        "created_time": "2017-09-12T21:03:32+0000",
        "reviewer": {
          "name": "Emiliano Zapata",
          "id": "1246783902085414"
        },
        "rating": 5
      },
      {
        "created_time": "2017-09-12T20:35:12+0000",
        "reviewer": {
          "name": "Pheanix Conaeqlib",
          "id": "10152503334903040"
        },
        "rating": 5
      },
      {
        "created_time": "2017-09-12T16:59:20+0000",
        "reviewer": {
          "name": "Madelaine Heinemann",
          "id": "10201480116483767"
        },
        "rating": 5,
        "review_text": "Opening weekend great mix of music and punters, had a lovely time xx"
      },
      {
        "created_time": "2017-09-11T18:25:32+0000",
        "reviewer": {
          "name": "\u03bc\u03c0\u03b1\u03bc\u03c0\u03b7\u03c2 \u03ba\u03b1\u03c1\u03b1\u03ba\u03b1\u03bb\u03bf\u03c2",
          "id": "989379751072943"
        },
        "rating": 5
      },
      {
        "created_time": "2017-09-11T17:10:56+0000",
        "reviewer": {
          "name": "Don Shades",
          "id": "10152522745425737"
        },
        "rating": 5
      },
      {
        "created_time": "2017-09-11T16:26:37+0000",
        "reviewer": {
          "name": "Matt Holborn",
          "id": "10155277722200109"
        },
        "rating": 5,
        "review_text": "This place is the one! Tell your pals!!!!"
      },
      {
        "created_time": "2017-09-11T16:13:53+0000",
        "reviewer": {
          "name": "Emanuela Monni",
          "id": "10205837056267002"
        },
        "rating": 5
      },
      {
        "created_time": "2017-09-11T16:05:16+0000",
        "reviewer": {
          "name": "Arran Kent",
          "id": "10152306267456339"
        },
        "rating": 5,
        "review_text": "Great new music venue! Lovely people running a lovely place full of lovely people!"
      },
      {
        "created_time": "2017-09-11T15:19:03+0000",
        "reviewer": {
          "name": "Bubu Drum Jah Tooth",
          "id": "1051415278217434"
        },
        "rating": 5,
        "review_text": "Of good vibes high level, yet to come the best is"
      },
      {
        "created_time": "2017-09-11T14:59:02+0000",
        "reviewer": {
          "name": "Max Shchedrovitzki",
          "id": "10152568611741238"
        },
        "rating": 5
      },
      {
        "created_time": "2017-09-11T14:55:34+0000",
        "reviewer": {
          "name": "George Botis",
          "id": "10204395442379353"
        },
        "rating": 5
      },
      {
        "created_time": "2017-09-11T14:50:40+0000",
        "reviewer": {
          "name": "Pavlos Panayioti Mastihi",
          "id": "10152001390516513"
        },
        "rating": 5,
        "review_text": "A wonderful new music venue with high quality live music from around the world. It's run mainly by high quality musicians, who have great networks with talented performers. At Balabam, there is a profound sense of community amongst the musicians (who are also customers), along with a network of music lovers like myself. This creates an amazing and unique vibe."
      },
      {
        "created_time": "2017-09-11T07:52:35+0000",
        "reviewer": {
          "name": "Michael Palmer",
          "id": "10152851197470743"
        },
        "rating": 5,
        "review_text": "Perhaps this is the place to save London. As all our beloved venues become luxury flats Balabam leads the fight back for community, music, freedom and love for all. Great vibes and so so needed in this city where money is too often king..."
      },
      {
        "created_time": "2017-09-10T22:41:10+0000",
        "reviewer": {
          "name": "Marian Vitarelli",
          "id": "10152984986204274"
        },
        "rating": 5
      },
      {
        "created_time": "2017-09-10T22:10:09+0000",
        "reviewer": {
          "name": "Tiny Wittan",
          "id": "10154571130859308"
        },
        "rating": 5
      },
      {
        "created_time": "2017-09-10T17:44:15+0000",
        "reviewer": {
          "name": "Alan Pagan",
          "id": "10154934151115217"
        },
        "rating": 5,
        "review_text": "Great new live music venue with really friendly staff and an eclectic buzzing crowd."
      },
      {
        "created_time": "2017-09-10T17:38:36+0000",
        "reviewer": {
          "name": "H\u00e9l\u00e8ne Vaillant",
          "id": "10152962914882632"
        },
        "rating": 5
      },
      {
        "created_time": "2017-09-10T17:11:53+0000",
        "reviewer": {
          "name": "Lele Xaxa",
          "id": "10205921764348378"
        },
        "rating": 5,
        "review_text": "There is not better place if you love music, dancing and awesome atmosphere. If you want to find a community pub where to feel like at home this is the one! But shhhhh...keep it secret!"
      },
      {
        "created_time": "2017-09-10T16:49:04+0000",
        "reviewer": {
          "name": "G\u00e9raldine Lestage",
          "id": "10204433580891944"
        },
        "rating": 5
      },
      {
        "created_time": "2017-09-10T12:51:29+0000",
        "reviewer": {
          "name": "Goosey Mangan",
          "id": "10154391305240183"
        },
        "rating": 5
      },
      {
        "created_time": "2017-09-10T10:54:50+0000",
        "reviewer": {
          "name": "Amelie De la Canebi\u00e8re",
          "id": "838334732855857"
        },
        "rating": 5
      },
      {
        "created_time": "2017-09-10T10:31:55+0000",
        "reviewer": {
          "name": "Jim Heinemann",
          "id": "405245929930505"
        },
        "rating": 5,
        "review_text": "Great addition to the neighborhood if the music is going to be this diverse I am going to be going a lot.\ufffd"
      },
      {
        "created_time": "2017-09-10T07:58:17+0000",
        "reviewer": {
          "name": "L'aura Pas L'aura",
          "id": "148526415670768"
        },
        "rating": 5
      },
      {
        "created_time": "2017-09-09T21:01:11+0000",
        "reviewer": {
          "name": "Nikos Gatz",
          "id": "10153702296013629"
        },
        "rating": 5
      },
      {
        "created_time": "2017-09-09T19:05:04+0000",
        "reviewer": {
          "name": "Mer Occhiobello",
          "id": "10203338775564149"
        },
        "rating": 5
      },
      {
        "created_time": "2017-09-09T18:42:10+0000",
        "reviewer": {
          "name": "Mih\u00e1lis Hadj",
          "id": "10152969663568822"
        },
        "rating": 5
      },
      {
        "created_time": "2017-09-09T17:00:40+0000",
        "reviewer": {
          "name": "Silvia Puglielli",
          "id": "10206246846598064"
        },
        "rating": 5
      },
      {
        "created_time": "2017-09-09T16:40:40+0000",
        "reviewer": {
          "name": "Vivi Miroti",
          "id": "10204393281653262"
        },
        "rating": 5
      },
      {
        "created_time": "2017-09-09T13:53:40+0000",
        "reviewer": {
          "name": "Assilaht Ariexiet-llattun",
          "id": "10155481475875177"
        },
        "rating": 5,
        "review_text": "We were all one big vibration last night. The music vibrated, the space vibrated, everything was sublimely good. So pleased I have a place where I know will be kind to me. Basically if anything awful happens meet at Balabam!!"
      },
      {
        "created_time": "2017-09-09T13:18:05+0000",
        "reviewer": {
          "name": "Dominic Rupert Faquhar Martin",
          "id": "981860805179271"
        },
        "rating": 5,
        "review_text": "Exciting and full of the spirit we love about London, keep up the good work"
      },
      {
        "created_time": "2017-09-09T12:25:05+0000",
        "reviewer": {
          "name": "Jamie Benzies",
          "id": "10154063109170402"
        },
        "rating": 5
      },
      {
        "created_time": "2017-09-08T20:29:38+0000",
        "reviewer": {
          "name": "Marcos Sebasti\u00e1n",
          "id": "10152580606577727"
        },
        "rating": 5,
        "review_text": "And all of a sudden Stamford Hill just got put on the map. Even at half open this place is already packed, you'd think they're giving pints away! \ufffd"
      },
      {
        "created_time": "2017-09-08T19:30:14+0000",
        "reviewer": {
          "name": "Lorien Lori",
          "id": "10205043590863743"
        },
        "rating": 5,
        "review_text": "Such a beautiful and cosy music venue created with love and a great vision. We have to cherish this gem within the London music pubs. I just love it \u003C3"
      },
      {
        "created_time": "2017-09-08T18:41:57+0000",
        "reviewer": {
          "name": "Yiani Meleisis",
          "id": "10154627200955961"
        },
        "rating": 5
      },
      {
        "created_time": "2017-09-08T10:32:47+0000",
        "reviewer": {
          "name": "Cleo Savva",
          "id": "10152894340351834"
        },
        "rating": 5
      },
      {
        "created_time": "2017-09-08T10:24:32+0000",
        "reviewer": {
          "name": "Austin Cooper",
          "id": "10155110174410153"
        },
        "rating": 5
      },
      {
        "created_time": "2017-09-08T10:24:18+0000",
        "reviewer": {
          "name": "Gil Karpas",
          "id": "10152732038566075"
        },
        "rating": 5
      },
      {
        "created_time": "2017-09-08T10:23:57+0000",
        "reviewer": {
          "name": "Lucy Tasker",
          "id": "10155482780540297"
        },
        "rating": 5
      },
      {
        "created_time": "2017-09-07T18:34:10+0000",
        "reviewer": {
          "name": "Ben Pitt",
          "id": "10153260134475329"
        },
        "rating": 5
      },
      {
        "created_time": "2017-09-04T07:15:00+0000",
        "reviewer": {
          "name": "Michael Iskas",
          "id": "930598663629087"
        },
        "rating": 5
      },
      {
        "created_time": "2017-08-30T21:21:57+0000",
        "reviewer": {
          "name": "Vladislav Botic",
          "id": "10152519215736707"
        },
        "rating": 5,
        "review_text": "Remember tonight... for it is the beginning of always."
      },
      {
        "created_time": "2017-08-30T16:01:17+0000",
        "reviewer": {
          "name": "Andreas Andrew",
          "id": "10152492222118214"
        },
        "rating": 5
      },
      {
        "created_time": "2017-08-30T15:41:30+0000",
        "reviewer": {
          "name": "Petros Botic",
          "id": "10203070901386917"
        },
        "rating": 5
      },
      {
        "created_time": "2017-08-30T15:37:03+0000",
        "reviewer": {
          "name": "Josh Middleton",
          "id": "10152416280161560"
        },
        "rating": 5,
        "review_text": "More vibes than the mind can comfortably conceive"
      },
      {
        "created_time": "2017-08-30T10:43:57+0000",
        "reviewer": {
          "name": "Daniel Gouly",
          "id": "10155317993125111"
        },
        "rating": 5,
        "review_text": "From the team who brought you jam in a jar comes a bigger, better and more exciting space packed with vibes and the best music London has to offer"
      },
      {
        "created_time": "2017-08-30T09:17:49+0000",
        "reviewer": {
          "name": "Oshan Danger Mahony",
          "id": "10154999691020578"
        },
        "rating": 5
      },
      {
        "created_time": "2017-08-29T16:09:39+0000",
        "reviewer": {
          "name": "Ossi Ritter",
          "id": "10153012236299695"
        },
        "rating": 5
      },
      {
        "created_time": "2017-08-04T22:20:36+0000",
        "reviewer": {
          "name": "Maria Anagnostopoulou",
          "id": "335985559942861"
        },
        "rating": 5,
        "review_text": "The new place to be! Our North London pride \u003C3 The top upcoming scene to host the best events and bring it all back togetha. Amazed with what's more to come. Lovely people already hugging it \u003C3"
      },
      {
        "created_time": "2017-08-04T18:21:31+0000",
        "reviewer": {
          "name": "Kwnstantinos Glunos",
          "id": "10202647728852425"
        },
        "rating": 5,
        "review_text": "\u039c\u03a0\u039f\u039c\u03a0\u0391 \u03a4\u039f \u039c\u0395\u03a1\u039f\u03a3!!!"
      },
      {
        "created_time": "2017-08-04T09:01:20+0000",
        "reviewer": {
          "name": "Tim Karp",
          "id": "628904301419"
        },
        "rating": 5,
        "review_text": "I particularly like the beautiful beer and the dazzling decor. The music is second to none and the staff are a breath of fresh air in this sometimes sad and dark world. Good job guys. Xx"
      },
      {
        "created_time": "2017-08-04T06:13:38+0000",
        "reviewer": {
          "name": "Ioannis Manolakis",
          "id": "203323653435978"
        },
        "rating": 5
      },
      {
        "created_time": "2017-08-04T00:48:50+0000",
        "reviewer": {
          "name": "Sam Rix",
          "id": "10205637381474391"
        },
        "rating": 5,
        "review_text": "A great place to have a coffee and catch up during the day and at night it hosts a variety of events as diverse as the peoples of London."
      },
      {
        "created_time": "2017-08-03T20:38:17+0000",
        "reviewer": {
          "name": "Tim Doyle",
          "id": "10154864929120291"
        },
        "rating": 5,
        "review_text": "The best new venue in north east London. It fills the void that has appeared for reliable and interesting music in London"
      }
    ],
    "paging": {
      "cursors": {
        "before": "MTI1ODc0MjYyNzoxOTU4NTI3NTIxMDQzODEz",
        "after": "NjA0MzQwMjkwOjE5NTg1Mjc1MjEwNDM4MTMZD"
      }
    }
  },
  "id": "1958527521043813"
}